Author,AwayTeam,Country,Date,Division,FTAG,FTHG,Fetched at,HomeTeam,Odds,Outcome,Post Time,Prediction,Return,Type of Bet,Wager
coolcoconut123,galatasaray,turkey,01/02/18,turkey cup,2,2,2018-01-31 23:34:15.665038,konyaspor,1.72,Win,2018-01-31 22:47:28.000000,btts yes,3.44,BTTS,2
coolcoconut123,roda jc,netherlands,01/02/18,dutch cup,2,3,2018-01-31 23:34:15.673912,willem ii,1.8,Win,2018-01-31 22:47:28.000000,over 2.5,3.6,Over,2
coolcoconut123,valencia,spain,01/02/18,copa del rey,0,1,2018-01-31 23:34:15.680791,barcelona,1.72,Lost,2018-01-31 22:47:28.000000,btts & over 2.5,0.0,Over,2
