Author,AwayTeam,Country,Date,Division,FTAG,FTHG,Fetched at,HomeTeam,Odds,Outcome,Post Time,Prediction,Return,Type of Bet,Wager
coolcoconut123,metz,france,01/12/18,ligue 2,1,1,2018-12-01 00:34:09.799619,grenoble foot,2.0,Push,2018-12-01 00:32:44.000000,dnb 2,1.0,DNB,1.0
coolcoconut123,espanyol,spain,01/12/18,la liga,0,3,2018-12-01 00:34:09.805258,getafe,2.05,Lost,2018-12-01 00:32:44.000000,btts yes,0.0,BTTS,1.0
coolcoconut123,nice,france,01/12/18,ligue 1,0,0,2018-12-01 00:34:09.809370,guingamp,1.9,Lost,2018-12-01 00:32:44.000000,btts yes,0.0,BTTS,1.0
coolcoconut123,extremadura,spain,01/12/18,segunda division,1,1,2018-12-01 00:34:09.816277,almeria,1.9,Win,2018-12-01 00:32:44.000000,btts yes,1.9,BTTS,1.0
coolcoconut123,valencia,spain,01/12/18,la liga,0,2,2018-12-01 00:34:09.820492,real madrid,2.07,Lost,2018-12-01 00:32:44.000000,ah 2 +1.0,0.0,AH,1.0
poisonfoot,valencia,spain,02/12/18,laliga,0,2,2018-12-01 19:34:13.143225,real madrid,2.11,Win,2018-12-01 18:36:32,under 3.0,1.055,Under,0.5
