Author,AwayTeam,Country,Date,Division,FTAG,FTHG,Fetched at,HomeTeam,Odds,Outcome,Post Time,Prediction,Return,Type of Bet,Wager
maxallergy,nordsjaelland,denmark,01/10/17,superliga,4.0,2.0,2017-10-01 09:30:06.731670,silkeborg,2.0,Win,2017-10-01 04:19:08.000000,2,2.0,1X2,1
maxallergy,betis,spain,01/10/17,la liga,4.0,4.0,2017-10-01 09:30:06.753217,real sociedad,3.8,Lost,2017-10-01 04:19:08.000000,2,0.0,1X2,1
maxallergy,cagliari,italy,01/10/17,serie a,0.0,3.0,2017-10-01 09:30:06.769811,napoli,1.5,Win,2017-10-01 04:19:08.000000,over 2.5 h,1.5,Over Team,1
maxallergy,feyenoord,netherlands,01/10/17,eredivisie,4.0,0.0,2017-10-01 09:30:06.786382,az alkmaar,1.53,Lost,2017-10-01 04:19:08.000000,btts yes,0.0,BTTS,1
maxallergy,brighton,england,01/10/17,premier league,0.0,2.0,2017-10-01 09:30:06.803016,arsenal,1.33,Win,2017-10-01 04:19:08.000000,over 1.5 h,1.33,Over Team,1
maxallergy,ufa,russia,01/10/17,premier league,0.0,0.0,2017-10-01 09:30:06.819690,cska moscow,1.29,Lost,2017-10-01 04:19:08.000000,1,0.0,1X2,1
maxallergy,leeds,england,01/10/17,championship,0.0,3.0,2017-10-01 09:30:06.836355,sheffield wed,3.3,Lost,2017-10-01 04:19:08.000000,2,0.0,1X2,1
maxallergy,hoffenheim,germany,01/10/17,bundesliga,2.0,3.0,2017-10-01 09:30:06.853020,sc freiburg,1.61,Win,2017-10-01 04:19:08.000000,btts yes,1.61,BTTS,1
maxallergy,aalborg,denmark,01/10/17,superliga,1.0,4.0,2017-10-01 09:30:06.869693,midtjylland,1.57,Win,2017-10-01 04:19:08.000000,1,1.57,1X2,1
maxallergy,gent,belgium,01/10/17,jupiler league,1.0,2.0,2017-10-01 09:30:06.886315,club brugge kv,1.67,Win,2017-10-01 04:19:08.000000,1,1.67,1X2,1
maxallergy,ajax,netherlands,01/10/17,eredivisie,4.0,0.0,2017-10-01 09:30:06.902981,heerenveen,2.2,Lost,2017-10-01 04:19:08.000000,dc 1x,0.0,DC,1
maxallergy,inter,italy,01/10/17,serie a,2.0,1.0,2017-10-01 09:30:06.919638,benevento,1.25,Win,2017-10-01 04:19:08.000000,2,1.25,1X2,1
maxallergy,fiorentina,italy,01/10/17,serie a,1.0,2.0,2017-10-01 09:30:06.936258,chievo,2.55,Lost,2017-10-01 04:19:08.000000,2,0.0,1X2,1
maxallergy,sassuolo,italy,01/10/17,serie a,1.0,6.0,2017-10-01 09:30:06.952938,lazio,1.4,Win,2017-10-01 04:19:08.000000,1,1.4,1X2,1
maxallergy,verona,italy,01/10/17,serie a,2.0,2.0,2017-10-01 09:30:06.969586,torino,1.3,Lost,2017-10-01 04:19:08.000000,1,0.0,1X2,1
maxallergy,atromitos,greece,01/10/17,super league,1.0,0.0,2017-10-01 09:30:06.986210,olympiakos piraeus,3.5,Win,2017-10-01 04:19:08.000000,dc x2,3.5,DC,1
maxallergy,halmstad,sweden,01/10/17,allsvenskan,0.0,2.0,2017-10-01 09:30:07.002934,malmo ff,1.53,Push,2017-10-01 04:19:08.000000,ht/ft h,1.0,,1
maxallergy,hacken,sweden,01/10/17,allsvenskan,0.0,0.0,2017-10-01 09:30:07.019703,ostersunds,1.67,Lost,2017-10-01 04:19:08.000000,btts yes,0.0,BTTS,1
maxallergy,bohemians 1905,czech republic,01/10/17,1. liga,1.0,2.0,2017-10-01 09:30:07.036342,plzen,1.33,Win,2017-10-01 04:19:08.000000,1,1.33,1X2,1
maxallergy,burnley,england,01/10/17,premier league,1.0,0.0,2017-10-01 09:30:07.053042,everton,1.7,Lost,2017-10-01 04:19:08.000000,1,0.0,1X2,1
maxallergy,bayern munich,germany,01/10/17,bundesliga,2.0,2.0,2017-10-01 09:30:07.069787,hertha berlin,1.3,Lost,2017-10-01 04:19:08.000000,2,0.0,1X2,1
maxallergy,sonderjyske,denmark,01/10/17,superliga,0.0,4.0,2017-10-01 09:30:07.086448,brondby,1.44,Win,2017-10-01 04:19:08.000000,1,1.44,1X2,1
maxallergy,karpaty,ukraine,01/10/17,premier league,2.0,0.0,2017-10-01 09:30:07.103181,shaktar donetsk,1.4,Push,2017-10-01 04:19:08.000000,ht/ft h,1.0,,1
maxallergy,zira,azerbaijan,01/10/17,premier league,0.0,0.0,2017-10-01 09:30:07.119897,qarabag,2.75,Win,2017-10-01 04:19:08.000000,dc x2,2.75,DC,1
maxallergy,las palmas,spain,01/10/17,la liga,0.0,3.0,2017-10-01 09:30:07.136608,barcelona,1.33,Push,2017-10-01 04:19:08.000000,ht/ft h,1.0,,1
maxallergy,nd gorica,slovenia,01/10/17,prva liga,1.0,2.0,2017-10-01 09:30:07.153345,nk olimpija ljubjana,1.53,Win,2017-10-01 04:19:08.000000,1,1.53,1X2,1
maxallergy,lyon,france,01/10/17,ligue 1,3.0,3.0,2017-10-01 09:30:07.170151,angers,2.3,Lost,2017-10-01 04:19:08.000000,2,0.0,1X2,1
maxallergy,istra 1961,croatia,01/10/17,1. hnl,1.0,2.0,2017-10-01 09:30:07.186816,osijek,1.36,Win,2017-10-01 04:19:08.000000,1,1.36,1X2,1
maxallergy,fc juventus bucuresti,romania,01/10/17,liga 1,0.0,2.0,2017-10-01 09:30:07.203715,cfr cluj,1.72,Push,2017-10-01 04:19:08.000000,ht/ft h,1.0,,1
maxallergy,mlada boleslav,czech republic,01/10/17,1. liga,1.0,3.0,2017-10-01 09:30:07.220722,jablonec,1.95,Win,2017-10-01 04:19:08.000000,over 2.5,1.95,Over,1
maxallergy,sigma olomouc,czech republic,01/10/17,1. liga,1.0,0.0,2017-10-01 09:30:07.237506,jihlava,2.4,Win,2017-10-01 04:19:08.000000,2,2.4,1X2,1
maxallergy,liverpool,england,01/10/17,premier league,1.0,1.0,2017-10-01 09:30:07.254221,newcastle,1.65,Lost,2017-10-01 04:19:08.000000,o 2.5,0.0,Over,1
maxallergy,elfsborg,sweden,01/10/17,allsvenskan,2.0,5.0,2017-10-01 09:30:07.272628,aik,2.2,Win,2017-10-01 04:19:08.000000,over 2.5 h,2.2,Over Team,1
maxallergy,fc copenhagen,denmark,01/10/17,superliga,1.0,3.0,2017-10-01 09:30:07.289443,lyngby,1.73,Lost,2017-10-01 04:19:08.000000,2,0.0,1X2,1
maxallergy,as roma,italy,01/10/17,serie a,2.0,0.0,2017-10-01 09:30:07.306119,ac milan,2.62,Win,2017-10-01 04:19:08.000000,2,2.62,1X2,1
maxallergy,rb leipzig,germany,01/10/17,bundesliga,2.0,1.0,2017-10-01 09:30:07.322921,fc koln,1.83,Lost,2017-10-01 04:19:08.000000,dc 1x,0.0,DC,1
maxallergy,zenit petersburg,russia,01/10/17,premier league,2.0,2.0,2017-10-01 09:30:07.356453,fk anzi makhackala,1.44,Lost,2017-10-01 04:19:08.000000,2,0.0,1X2,1
maxallergy,brno,czech republic,01/10/17,1. liga,0.0,2.0,2017-10-01 09:30:07.373195,slavia prague,2.0,Lost,2017-10-01 04:19:08.000000,over 2.5 h,0.0,Over Team,1
maxallergy,ath bilbao,spain,01/10/17,la liga,2.0,3.0,2017-10-01 09:30:07.390022,valencia,1.72,Win,2017-10-01 04:19:08.000000,1,1.72,1X2,1
maxallergy,eibar,spain,01/10/17,la liga,0.0,3.0,2017-10-01 09:30:07.406709,villareal,1.8,Win,2017-10-01 04:19:08.000000,1,1.8,1X2,1
maxallergy,dyn. kiev,ukraine,01/10/17,premier league,4.0,4.0,2017-10-01 09:30:07.423498,fk zorya luhansk,1.4,Lost,2017-10-01 04:19:08.000000,2,0.0,1X2,1
maxallergy,rijeka,croatia,01/10/17,1. hnl,5.0,1.0,2017-10-01 09:30:07.440272,rudes,1.33,Win,2017-10-01 04:19:08.000000,2,1.33,1X2,1
maxallergy,ac wolfsberger,austria,01/10/17,tipico bundesliga,1.0,2.0,2017-10-01 09:30:07.457713,salzburg,1.72,Push,2017-10-01 04:19:08.000000,ht/ft h,1.0,,1
maxallergy,beroe,bulgaria,01/10/17,parva liga,0.0,2.0,2017-10-01 09:30:07.474469,ludogorets,1.25,Win,2017-10-01 04:19:08.000000,1,1.25,1X2,1
maxallergy,aek athens fc,greece,01/10/17,super league,0.0,2.0,2017-10-01 09:30:07.491285,asteras tripolis,1.95,Lost,2017-10-01 04:19:08.000000,2,0.0,1X2,1
maxallergy,fcsb,romania,01/10/17,liga 1,4.0,0.0,2017-10-01 09:30:07.508117,sepsi,1.44,Win,2017-10-01 04:19:08.000000,2,1.44,1X2,1
maxallergy,sarpsborg 08,norway,01/10/17,eliteserien,1.0,1.0,2017-10-01 09:30:07.524905,rosenborg,1.62,Lost,2017-10-01 04:19:08.000000,1,0.0,1X2,1
maxallergy,fc porto,portugal,01/10/17,primeira liga,0.0,0.0,2017-10-01 09:30:07.541774,sporting,1.5,Win,2017-10-01 04:19:08.000000,dc x2,1.5,DC,1
maxallergy,juventus,italy,01/10/17,serie a,2.0,2.0,2017-10-01 09:30:07.558662,atalanta,1.33,Win,2017-10-01 04:19:08.000000,eh 1 +2,1.33,EH,1
maxallergy,espanyol,spain,01/10/17,la liga,0.0,2.0,2017-10-01 09:30:07.575551,real madrid,1.36,Push,2017-10-01 04:19:08.000000,ht/ft h,1.0,,1
maxallergy,benfica,portugal,01/10/17,primeira liga,1.0,1.0,2017-10-01 09:30:07.609565,maritimo,1.45,Lost,2017-10-01 04:19:08.000000,2,0.0,1X2,1
theflareonProphet,xanthi,greece,30/09/17,super league,2.0,0.0,2017-10-01 09:30:07.660458,kerkyra,1.35,Win,2017-09-29 16:28:10.000000,under 2.5,1.35,Under,1
theflareonProphet,novara,italy,30/09/17,serie b,2.0,2.0,2017-10-01 09:30:07.680664,foggia,4.95,Lost,2017-09-29 16:28:10.000000,2,0.0,1X2,2
theflareonProphet,ajax,netherlands,30/09/17,eredivisie,4.0,0.0,2017-10-01 09:30:07.696067,heerenveen,2.35,Lost,2017-09-29 16:28:10.000000,under 2.5,0.0,Under,1
theflareonProphet,ajax,netherlands,30/09/17,eredivisie,4.0,0.0,2017-10-01 09:30:07.711495,heerenveen,1.76,Win,2017-09-29 16:28:10.000000,2,1.76,1X2,1
theflareonProphet,roda,netherlands,30/09/17,eredivisie,2.0,1.0,2017-10-01 09:30:07.726821,sparta rotterdam,1.98,Lost,2017-09-29 16:28:10.000000,under 2.5,0.0,Under,1
theflareonProphet,utrecht,netherlands,30/09/17,eredivisie,1.0,1.0,2017-10-01 09:30:07.742212,vitesse,2.34,Lost,2017-09-29 16:28:10.000000,1,0.0,1X2,2
theflareonProphet,barcelona b,spain,30/09/17,segunda division,,,2017-10-01 09:30:07.757616,gimnastic,2.01,Push,2017-09-29 16:28:10.000000,over 2.5,1,,1
theflareonProphet,reus deportiu,spain,30/09/17,segunda division,1.0,0.0,2017-10-01 09:30:07.772966,sevilla b,1.48,Win,2017-09-29 16:28:10.000000,under 2.5,1.48,Under,1
HJGP,fredericia,denmark,01/10/17,1st division,0.0,0.0,2017-10-01 09:30:07.837446,koge,2.3,Lost,2017-09-30 18:35:52.000000,1,0.0,1X2,1
HJGP,thisted fc,denmark,01/10/17,1st division,2.0,1.0,2017-10-01 09:30:07.860568,skive,2.28,Win,2017-09-30 18:35:52.000000,2,2.28,1X2,1
HJGP,ulyanovsk,russia,01/10/17,division 2 - ural-povolzhye,1.0,0.0,2017-10-01 09:30:07.886196,zenit-izhevsk,3.1,Win,2017-09-30 18:35:52.000000,2,3.1,1X2,1
HJGP,chojniczanka,poland,01/10/17,division 1,2.0,0.0,2017-10-01 09:30:07.904175,suwalki,2.49,Win,2017-09-30 18:35:52.000000,2,2.49,1X2,1
HJGP,huaral,peru,01/10/17,segunda division,4.0,2.0,2017-10-01 09:30:07.949197,los caimanes,3.13,Win,2017-09-30 18:35:52.000000,2,3.13,1X2,1
tropianhs,burnley,england,01/10/17,premier league,1.0,0.0,2017-10-01 09:30:08.018914,everton,6.0,Win,2017-10-01 08:51:45.000000,2,30.0,1X2,5
tropianhs,lyon,france,01/10/17,ligue 1,3.0,3.0,2017-10-01 09:30:08.039148,angers,3.59,Win,2017-10-01 08:51:45.000000,x,17.95,1X2,5
tropianhs,hoffenheim,germany,01/10/17,bundesliga,2.0,3.0,2017-10-01 09:30:08.054514,freiburg,3.62,Lost,2017-10-01 08:51:45.000000,x,0.0,1X2,5
trksab,aek athens,greece,01/10/17,super league,0.0,2.0,2017-10-01 11:30:07.863392,asteras tripolis,1.9,Lost,2017-10-01 11:24:10,2,0.0,1X2,1
trksab,aris limassol,cyprus,01/10/17,division 1,1.0,2.0,2017-10-01 11:30:07.884801,doxa katokopias,2.1,Win,2017-10-01 11:24:10,1,2.1,1X2,1
trksab,crotone,italy,01/10/17,serie a,1.0,1.0,2017-10-01 11:30:07.901287,spal,1.95,Lost,2017-10-01 11:24:10,1,0.0,1X2,1
trksab,gornik leczna,poland,01/10/17,i liga,0.0,1.0,2017-10-01 11:30:07.917769,olimpia grudziadz,1.9,Win,2017-10-01 11:24:10,1,1.9,1X2,1
HJGP,sport boys,peru,01/10/17,segunda division,2.0,0.0,2017-10-01 15:00:07.788180,defensor la bocana,1.9,Win,2017-09-30 18:35:52,2,1.9,1X2,1
