Author,AwayTeam,Country,Date,Division,FTAG,FTHG,Fetched at,HomeTeam,Odds,Outcome,Post Time,Prediction,Return,Type of Bet,Wager
coolcoconut123,manchester united,england,02/01/19,premier league,2,0,2019-01-01 23:34:10.791882,newcastle united,2.25,Lost,2019-01-01 22:37:38.000000,2 & over 2.5,0.0,Over,1
ForeverLearning-,benfica,portugal,02/01/19,liga nos,0,2,2019-01-01 23:34:10.804565,portimonense,1.53,Lost,2019-01-01 21:23:08.000000,over 1.5 a,0.0,Over Team,3
ForeverLearning-,moreirense,portugal,02/01/19,liga nos,2,1,2019-01-01 23:34:10.810024,rio ave,1.75,Win,2019-01-01 21:23:08.000000,btts yes,3.5,BTTS,2
ForeverLearning-,moreirense,portugal,02/01/19,liga nos,2,1,2019-01-01 23:34:10.814074,rio ave,1.95,Win,2019-01-01 21:23:08.000000,over 2.5,1.95,Over,1
adilbrohi,benfica,portugal,02/01/19,primeira liga,0,2,2019-01-02 04:34:09.587943,portimonense,1.66,Lost,2019-01-02 03:42:38,o2.5,0.0,Over,1
adilbrohi,moreirense,portugal,02/01/19,primeira liga,2,1,2019-01-02 04:34:09.593355,rio ave,1.83,Win,2019-01-02 03:42:38,x2,1.83,DC,1
adilbrohi,watford,england,02/01/19,premier league,3,3,2019-01-02 04:34:09.598690,bournemouth,2.1,Lost,2019-01-02 03:42:38,u2.5,0.0,Under,1
adilbrohi,burnley,england,02/01/19,premier league,2,1,2019-01-02 04:34:09.603816,huddersfield,1.5,Lost,2019-01-02 03:42:38,u2.5,0.0,Under,1
ForeverLearning-,maritimo,portugal,02/01/19,liga nos,0,2,2019-01-02 08:34:11.427373,braga,1.725,Win,2019-01-01 21:23:08,ah 1 -1.5,3.45,AH,2
