Author,AwayTeam,Country,Date,Division,FTAG,FTHG,Fetched at,HTAG,HTHG,HomeTeam,Odds,Outcome,Post Time,Prediction,Return,Type of Bet,Wager
drearyDusk,zilina b,slovakia,02/11/18,2. liga,0.0,3.0,2018-11-05 23:34:11.120076,,,bardejov,1.2,Win,2018-11-02 01:08:23,dc 12,0.516,DC,0.43
drearyDusk,al-taawon,saudi arabia,02/11/18,saudi professional league,0.0,1.0,2018-11-05 23:34:11.125817,,,ohod,1.95,Lost,2018-11-02 01:08:23,2,0.0,1X2,0.39
drearyDusk,teplice,czech republic,02/11/18,1. liga,3.0,2.0,2018-11-05 23:34:11.130463,,,bohemians 1905,1.39,Lost,2018-11-02 01:08:23,dnb 1,0.0,DNB,0.83
drearyDusk,pogon szczecin,poland,02/11/18,ekstraklasa,3.0,2.0,2018-11-05 23:34:11.134897,,,arka gdynia,1.44,Lost,2018-11-02 01:08:23,dc 1x,0.0,DC,1.1
drearyDusk,sv sandhausen,germany,02/11/18,2. bundesliga,1.0,3.0,2018-11-05 23:34:11.140021,,,dynamo dresden,1.64,Win,2018-11-02 01:08:23,dnb 1,0.8528,DNB,0.52
drearyDusk,cs uni craiova,romania,02/11/18,liga 1,,,2018-11-05 23:34:11.144591,,,csms iasi,2.32,Push,2018-11-02 01:08:23,2,3.3,,3.3
drearyDusk,groningen,holland,02/11/18,eredivisie,,,2018-11-05 23:34:11.149786,,,excelsior,1.48,Push,2018-11-02 01:08:23,dc 1x,1.92,,1.92
drearyDusk,charleroi,belgium,02/11/18,jupiler league,1.0,2.0,2018-11-05 23:34:11.155027,,,oostende,1.41,Lost,2018-11-02 01:08:23,dc x2,0.0,DC,0.27
drearyDusk,eintracht frankfurt,germany,02/11/18,bundesliga,3.0,0.0,2018-11-05 23:34:11.159479,,,stuttgart,1.4,Win,2018-11-02 01:08:23,2,0.644,1X2,0.46
drearyDusk,bolton,england,02/11/18,championship,0.0,2.0,2018-11-05 23:34:11.163781,,,aston villa,2.81,Lost,2018-11-02 01:08:23,dc x2,0.0,DC,0.14
drearyDusk,univ de concepcion,chile,02/11/18,primera divisin,2.0,4.0,2018-11-05 23:34:11.168751,,,ohiggins,1.34,Win,2018-11-02 01:08:23,dc 12,0.938,DC,0.7
drearyDusk,,+0.54 (overall),02/11/18,,,,2018-11-05 23:34:11.180173,,,,,Push,2018-11-02 01:08:23,None,,,
drearyDusk,,45 %,02/11/18,,,,2018-11-05 23:34:11.184246,,,,,Push,2018-11-02 01:08:23,None,,,
drearyDusk,,6 l,02/11/18,0 p,,,2018-11-05 23:34:11.188147,,,,,Push,2018-11-02 01:08:23,None,,,
drearyDusk,,,02/11/18,,,,2018-11-05 23:34:11.191851,,,,,Push,2018-11-02 01:08:23,None,,,
ExperientialAra,sparta,the netherlands,02/11/18,division,,,2018-11-05 23:34:11.206766,,,mvv,1.35,Push,2018-11-02 11:31:38,2 draw no bet,5.0,,5.0
ExperientialAra,tallina kalev -21,estonia,02/11/18,esiliga,3.0,0.0,2018-11-05 23:34:11.212088,,,levadia -21,1.66,Win,2018-11-02 11:31:38,2,8.299999999999999,1X2,5.0
ExperientialAra,changchun yatai,china,02/11/18,league,0.0,2.0,2018-11-05 23:34:11.216232,,,shandong luneng,1.54,Win,2018-11-02 11:31:38,1,7.7,1X2,5.0
ExperientialAra,energie cottbus,germany,02/11/18,3d,2.0,0.0,2018-11-05 23:34:11.220319,,,kaiserslautern,1.6,Lost,2018-11-02 11:31:38,1,0.0,1X2,5.0
ExperientialAra,shabab al ordon,jordania,02/11/18,league,,,2018-11-05 23:34:11.224313,,,al ahli,1.81,Push,2018-11-02 11:31:38,2,5.0,,5.0
ExperientialAra,lokomotive leipzig,germany,02/11/18,regionale,1.0,1.0,2018-11-05 23:34:11.228632,,,nordhausen,1.73,Lost,2018-11-02 11:31:38,1,0.0,1X2,2.0
ExperientialAra,enppi,egypt,02/11/18,premier league,1.0,1.0,2018-11-05 23:34:11.233954,,,el gounah,1.5,Win,2018-11-02 11:31:38,2x,3.0,DC,2.0
ExperientialAra,smouha,egypt,02/11/18,league,2.0,2.0,2018-11-05 23:34:11.238240,,,el entag el harby,1.4,Win,2018-11-02 11:31:38,2x,7.0,DC,5.0
ExperientialAra,al-hilal,saoudi arabia,02/11/18,league,,,2018-11-05 23:34:11.242337,,,al qadisiya,1.42,Push,2018-11-02 11:31:38,2,5.0,,5.0
ExperientialAra,al-taawon,saoudi arabia,02/11/18,league,,,2018-11-05 23:34:11.246288,,,ohod,1.92,Push,2018-11-02 11:31:38,2,2.0,,2.0
ExperientialAra,nassaji,iran,02/11/18,division,,,2018-11-05 23:34:11.250359,,,padideh,1.84,Push,2018-11-02 11:31:38,1,2.0,,2.0
poisonfoot,gorodeja,belarus,02/11/18,vysshaya liga,5.0,0.0,2018-11-05 23:34:11.261412,,,fc minsk,2.1,Lost,2018-11-02 10:41:59,btts yes,0.0,BTTS,0.5
poisonfoot,marignane,france,02/11/18,national,1.0,1.0,2018-11-05 23:34:11.266801,,,sannois,2.0,Push,2018-11-02 10:41:59,ah 2  0,0.75,AH,0.75
