Author,AwayTeam,Country,Date,Division,FTAG,FTHG,Fetched at,HomeTeam,Odds,Outcome,Post Time,Prediction,Return,Type of Bet,Wager
PM_ME_UR_WORRIMENTS,rapid wien,europe,04/10/18,uefa europa league,1.0,3.0,2018-10-03 23:34:32.306119,rangers,1.28,Win,2018-10-03 22:46:51,1x,0.64,DC,0.5
PM_ME_UR_WORRIMENTS,sevilla,europe,04/10/18,uefa europa league,1.0,2.0,2018-10-03 23:34:32.319103,fk krasnodar,1.37,Lost,2018-10-03 22:46:51,x2,0.0,DC,0.5
GonnSoares,villarreal,europe,04/10/18,europa league,3.0,3.0,2018-10-04 14:34:30.623562,spartat moscow,1.72,Lost,2018-10-04 13:47:23,under 2.5,0.0,Under,1.0
poisonfoot,atvidabergs,sweden,03/10/18,division 1 sodra,2.0,1.0,2018-10-07 23:34:23.484802,oskarshamns,1.95,Win,2018-10-03 14:08:59,ah 2 1.25,0.6435,AH,0.33
PM_ME_UR_WORRIMENTS,arsenal,europe,04/10/18,uefa europa league,3.0,0.0,2018-10-07 23:34:23.504984,qarabag,1.5,Win,2018-10-03 22:46:51,2,0.75,1X2,0.5
PM_ME_UR_WORRIMENTS,slavia prague,europe,04/10/18,uefa europa league,0.0,1.0,2018-10-07 23:34:23.510538,zenit st petersburg,1.9,Lost,2018-10-03 22:46:51,o2.5,0.0,Over,0.5
PM_ME_UR_WORRIMENTS,f91 dudelange,europe,04/10/18,uefa europa league,0.0,3.0,2018-10-07 23:34:23.514706,betis,1.65,Win,2018-10-03 22:46:51,u3.5,0.825,Under,0.5
PM_ME_UR_WORRIMENTS,rb leipzig,europe,04/10/18,uefa europa league,3.0,1.0,2018-10-07 23:34:23.518883,rosenborg,1.3,Win,2018-10-03 22:46:51,dnb 2,0.65,DNB,0.5
PM_ME_UR_WORRIMENTS,rapid wien,europe,04/10/18,uefa europa league,1.0,3.0,2018-10-07 23:34:23.523168,rangers,1.45,Win,2018-10-03 22:46:51,dnb 1,0.725,DNB,0.5
PM_ME_UR_WORRIMENTS,genk,europe,04/10/18,uefa europa league,1.0,3.0,2018-10-07 23:34:23.527394,sarpsborg,1.7,Win,2018-10-03 22:46:51,o2.5,0.85,Over,0.5
IBeMadToo,lazio,uefa europa league,04/10/18,group h,,,2018-10-07 23:34:23.539003,eintracht frankfurt,2.1,Push,2018-10-04 07:02:37,o2.5 & btts yes,1.0,,1.0
IBeMadToo,sevilla,uefa europa league,04/10/18,group j,,,2018-10-07 23:34:23.544207,krasnodar,1.95,Push,2018-10-04 07:02:37,over 1.5 away team goals,1.05,,1.05
Wolfframm,genk,europe,04/10/18,europa league,1.0,3.0,2018-10-07 23:34:23.556934,sarpsborg 08,1.57,Win,2018-10-04 12:06:03,2 ah -1.0,3.14,AH,2.0
Wolfframm,akhisar,europe,04/10/18,europa league,,,2018-10-07 23:34:23.562018,st. liege,1.88,Push,2018-10-04 12:06:03,1 ah -1.0,3.0,,3.0
Wolfframm,rapid wien,europe,04/10/18,europa league,1.0,3.0,2018-10-07 23:34:23.565848,rangers,1.67,Win,2018-10-04 12:06:03,1 ah -0.25,8.35,AH,5.0
GonnSoares,sporting,europe,04/10/18,europa league,2.0,1.0,2018-10-07 23:34:23.582797,vorskla,2.1,Win,2018-10-04 13:47:23,btts yes,1.05,BTTS,0.5
GonnSoares,lazio,europe,04/10/18,europa league,1.0,4.0,2018-10-07 23:34:23.587946,eintracht frankfurt,1.92,Win,2018-10-04 13:47:23,over 2.5,0.96,Over,0.5
GonnSoares,villarreal,europe,04/10/18,europa league,3.0,3.0,2018-10-07 23:34:23.592360,spartak moscow,1.72,Lost,2018-10-04 13:47:23,under 2.5,0.0,Under,1.0
