Author,AwayTeam,Country,Date,Division,FTAG,FTHG,Fetched at,HomeTeam,Odds,Outcome,Post Time,Prediction,Return,Type of Bet,Wager
coolcoconut123,tulevik,estonia,05/06/18,meistriliiga,0.0,4.0,2018-06-04 21:34:32.665168,paide,3.25,Lost,2018-06-04 21:23:02.000000,x2,0.0,DC,1
coolcoconut123,fci levadia,estonia,05/06/18,meistriliiga,4.0,0.0,2018-06-04 21:34:32.672283,tallinna kalev,3.0,Lost,2018-06-04 21:23:02.000000,2 & over 4.5,0.0,Over,2
ExperientialAra,poland -19 v,europe,05/06/18,ek,,,2018-06-05 10:34:18.269629,iceland -19 v,1.7,Push,2018-06-05 10:17:17,2,5,,5
ExperientialAra,china -19,europe,05/06/18,toulon,,,2018-06-05 10:34:18.274907,portugal -19,1.5,Push,2018-06-05 10:17:17,1,5,,5
ExperientialAra,savedalens,sweden,05/06/18,2nd division,0.0,1.0,2018-06-05 10:34:18.279098,lindome,1.64,Win,2018-06-05 10:17:17,1,3.28,1X2,2
ExperientialAra,finland,europe,05/06/18,friendly,,,2018-06-05 10:34:18.287211,romania,1.76,Push,2018-06-05 10:17:17,1,5,,5
ExperientialAra,georgia,europe,05/06/18,friendly,,,2018-06-05 10:34:18.291245,luxembourg,1.93,Push,2018-06-05 10:17:17,2,2,,2
