Author,AwayTeam,Country,Date,Division,FTAG,FTHG,Fetched at,HomeTeam,Odds,Post Time,Prediction,Wager
mardinimerc,wellington phoenix reserves,new zealand,06/02/19,football championship,0,3,2019-02-06 05:34:16.591797,team wellington,1.36,2019-02-05 22:38:10.000000,over 2.5,4
mardinimerc,wellington phoenix reserves,new zealand,06/02/19,football championship,0,3,2019-02-06 05:34:16.599059,team wellington,1.9,2019-02-05 22:38:10.000000,over 3.5,1
mardinimerc,livingston,scotland,06/02/19,premiership,0,0,2019-02-06 05:34:16.603247,hearts,1.8,2019-02-05 22:38:10.000000,1,1
mardinimerc,hibernian,scotland,06/02/19,premiership,0,2,2019-02-06 05:34:16.607397,celtic,1.63,2019-02-05 22:38:10.000000,ah 1 -1.25,1
mardinimerc,st johnstone,scotland,06/02/19,premiership,1,2,2019-02-06 05:34:16.611303,hamilton,2.0,2019-02-05 22:38:10.000000,2,1
mardinimerc,real madrid,spain,06/02/19,copa del rey,1,1,2019-02-06 05:34:16.615426,barcelona,1.53,2019-02-05 22:38:10.000000,btts yes,2
