Author,AwayTeam,Country,Date,Division,FTAG,FTHG,Fetched at,HomeTeam,Odds,Outcome,Post Time,Prediction,Return,Type of Bet,Wager
coolcoconut123,aarau,switzerland,08/03/18,challenge league,0.0,2.0,2018-03-07 21:34:16.043524,rapperswil-jona,2.1,Lost,2018-03-07 21:30:39.000000,btts & over 2.5,0.0,Over,2
coolcoconut123,arsenal,europe,08/03/18,europa league,2.0,0.0,2018-03-07 21:34:16.049321,ac milan,2.05,Lost,2018-03-07 21:30:39.000000,1,0.0,1X2,2
coolcoconut123,zenit,europe,08/03/18,europa league,,,2018-03-07 21:34:16.053619,rb leipzig,1.9,Push,2018-03-07 21:30:39.000000,btts yes,2,,2
