Author,AwayTeam,Country,Date,Division,FTAG,FTHG,Fetched at,HomeTeam,Odds,Outcome,Post Time,Prediction,Return,Type of Bet,Wager
coolcoconut123,keflavk,iceland,08/06/18,rvalsdeild,0,2,2018-06-07 17:34:27.588922,fylkir,2.1,Lost,2018-06-07 17:11:17.000000,btts & over 2.5,0.0,Over,2
ExperientialAra,oakleigh,australia,08/06/18,npl,0,3,2018-06-08 10:34:14.800340,bentleigh,1.73,Win,2018-06-08 10:04:05,1,3.46,1X2,2
ExperientialAra,tp-47,finland,08/06/18,kakkonen,2,3,2018-06-08 10:34:14.805822,hercules,1.4,Win,2018-06-08 10:04:05,1,7.0,1X2,5
ExperientialAra,longford,ireland,08/06/18,1st division,0,1,2018-06-08 10:34:14.809851,cabinteely,1.96,Lost,2018-06-08 10:04:05,2,0.0,1X2,2
ExperientialAra,ir reykjavik,iceland,08/06/18,division,0,3,2018-06-08 10:34:14.813897,akranes,1.3,Win,2018-06-08 10:04:05,1,6.5,1X2,5
ExperientialAra,sriwija,indonesia,08/06/18,liga 1,1,3,2018-06-08 10:34:14.817876,barito putera,1.83,Win,2018-06-08 10:04:05,1,3.66,1X2,2
ExperientialAra,lithuania,world,08/06/18,friendly,0,1,2018-06-08 10:34:14.821915,iran,1.72,Win,2018-06-08 10:04:05,1,8.6,1X2,5
ExperientialAra,japan,world,08/06/18,friendly,0,2,2018-06-08 10:34:14.826066,switzerland,1.61,Win,2018-06-08 10:04:05,1,8.05,1X2,5
