Author,AwayTeam,Country,Date,Division,FTAG,FTHG,Fetched at,HomeTeam,Odds,Outcome,Post Time,Prediction,Return,Type of Bet,Wager
poisonfoot,cartagena,spain,09/09/18,segunda division b group 4,0.0,0.0,2018-09-12 23:34:28.193925,recreativo huelva,2.2,Push,2018-09-08 19:09:41,dnb 2,0.35,DNB,0.35
Hitlers_Art_Teacher,coventry,england,09/09/18,league one,2.0,1.0,2018-09-12 23:34:28.217890,oxford,1.81,Lost,2018-09-08 20:34:23,dnb 1,0.0,DNB,2.5
GotTheNameIWanted,corithians,brazil,09/09/18,serie a,0.0,1.0,2018-09-12 23:34:28.235613,palmeiras,1.75,Win,2018-09-09 01:13:30,h,4.375,1X2,2.5
GotTheNameIWanted,corithians,brazil,09/09/18,serie a,0.0,1.0,2018-09-12 23:34:28.245751,palmeiras,3.25,Win,2018-09-09 01:13:30,h and u2.5,4.875,Under Team,1.5
GotTheNameIWanted,elche,spain,09/09/18,segunda,0.0,1.0,2018-09-12 23:34:28.259475,numancia,3.4,Lost,2018-09-09 01:13:30,d,0.0,1X2,1.0
GotTheNameIWanted,granada,spain,09/09/18,segunda,3.0,1.0,2018-09-12 23:34:28.267168,extremadura,4.33,Lost,2018-09-09 01:13:30,a and u2.5,0.0,Under Team,1.0
GotTheNameIWanted,granada,spain,09/09/18,segunda,3.0,1.0,2018-09-12 23:34:28.275574,extremadura,2.3,Win,2018-09-09 01:13:30,a,2.3,1X2,1.0
GotTheNameIWanted,granada,spain,09/09/18,segunda,3.0,1.0,2018-09-12 23:34:28.283747,extremadura,1.57,Win,2018-09-09 01:13:30,dnb a,3.14,DNB,2.0
GotTheNameIWanted,sc borgfeld,germany,09/09/18,oberliga bremen,5.0,3.0,2018-09-12 23:34:28.297130,geestemunde,1.95,Push,2018-09-09 01:13:30,ht/ft h,1.5,,1.5
GotTheNameIWanted,ac kajaani,finland,09/09/18,division 1,,,2018-09-12 23:34:28.305091,kpv,3.75,Push,2018-09-09 01:13:30,h win by 1,1.0,,1.0
coolcoconut123,jef united,japan,09/09/18,j2-league,,,2018-09-12 23:34:28.331979,fagiano okayama,1.61,Push,2018-09-08 21:02:05,btts yes,2.0,,2.0
coolcoconut123,montedio yamagata,japan,09/09/18,j2-league,1.0,0.0,2018-09-12 23:34:28.366508,renofa yamaguchi,1.53,Lost,2018-09-08 21:02:05,btts yes,0.0,BTTS,2.0
coolcoconut123,montedio yamagata,japan,09/09/18,j2-league,1.0,0.0,2018-09-12 23:34:28.376655,renofa yamaguchi,1.65,Lost,2018-09-08 21:02:05,over 2.5,0.0,Over,2.0
coolcoconut123,frej,sweden,09/09/18,superettan,2.0,3.0,2018-09-12 23:34:28.397167,norrby,1.57,Win,2018-09-08 21:02:05,btts yes,3.14,BTTS,2.0
coolcoconut123,frej,sweden,09/09/18,superettan,2.0,3.0,2018-09-12 23:34:28.407254,norrby,1.66,Win,2018-09-08 21:02:05,over 2.5,3.32,Over,2.0
coolcoconut123,ster,sweden,09/09/18,superettan,0.0,1.0,2018-09-12 23:34:28.427527,rgryte,2.05,Lost,2018-09-08 21:02:05,btts & over 2.5,0.0,Over,2.0
coolcoconut123,ster,sweden,09/09/18,superettan,0.0,1.0,2018-09-12 23:34:28.437947,rgryte,2.5,Lost,2018-09-08 21:02:05,over 1.5 a,0.0,Over Team,2.0
