Author,AwayTeam,Country,Date,Division,FTAG,FTHG,Fetched at,HomeTeam,Odds,Outcome,Post Time,Prediction,Return,Type of Bet,Wager
trksab,vfv 06 hildesheim,germany,09/10/17,regional league north,1,2,2017-10-09 07:00:06.139599,eintracht braunschweig ii,1.9,Win,2017-10-09 06:40:21.000000,1,1.9,1X2,1
trksab,vicenza,italy,09/10/17,serie c group b,0,1,2017-10-09 07:00:06.160871,reggiana,2.45,Lost,2017-10-09 06:40:21.000000,2,0.0,1X2,1
WaRAmBusHeR,turkey,world,09/10/17,world cup 2018,2,2,2017-10-09 08:30:06.310226,finland,3.02,Lost,2017-10-09 08:01:34,1,0.0,1X2,1
WaRAmBusHeR,italy,world,09/10/17,world cup 2018,1,0,2017-10-09 08:30:06.331492,albania,1.8,Push,2017-10-09 08:01:34,ah 1 + 1,1.0,AH,1
