Author,AwayTeam,Country,Date,Division,FTAG,FTHG,Fetched at,HomeTeam,Odds,Post Time,Prediction,Wager
thepunterlife,chelsea,england,09/02/19,premier league,2,2,2019-02-09 00:34:16.222314,manchester city,1.10*,2019-02-08 16:54:37.000000,chelsea clean sheet no,1
coolcoconut123,yeni malatyaspo,turkey,10/02/19,sper lig,1,1,2019-02-09 22:34:21.471008,konyaspor,2.20,2019-02-09 22:11:53,btts yes,1
coolcoconut123,young boys,switzerland,10/02/19,super league,1,1,2019-02-09 22:34:21.476607,fc thun,2.62,2019-02-09 22:11:53,over 2.5 a,1
coolcoconut123,real sociedad,spain,10/02/19,la liga,0,0,2019-02-09 22:34:21.482276,valencia,1.90,2019-02-09 22:11:53,btts yes,1
coolcoconut123,psv,netherlands,10/02/19,eredivisie,2,2,2019-02-09 22:34:21.487791,fc utrecht,2.50,2019-02-09 22:11:53,over 2.5 a,1
coolcoconut123,lille,france,10/02/19,ligue 1,2,0,2019-02-09 22:34:21.492363,guingamp,2.37,2019-02-09 22:11:53,over 1.5 a,1
mardinimerc,wellington phoenix reserves,new zealand,10/02/19,football championship,1,2,2019-02-10 00:34:15.025687,auckland city,1.30,2019-02-09 23:54:13,over 2.5,tbd
mardinimerc,eastern suburbs,new zealand,10/02/19,football championship,1,3,2019-02-10 00:34:15.031239,team wellington,1.30,2019-02-09 23:54:13,over 2.5,tbd
mardinimerc,lautoka,ofc,10/02/19,champions league,,,2019-02-10 00:34:15.035443,morobe wawens,1.57,2019-02-09 23:54:13,2,tbd
mardinimerc,chelsea,england,10/02/19,premier league,2,2,2019-02-10 00:34:15.039511,manchester city,1.50,2019-02-09 23:54:13,1,3
mardinimerc,chelsea,england,10/02/19,premier league,2,2,2019-02-10 00:34:15.043648,manchester city,1.79,2019-02-09 23:54:13,ah 1 -1,2
mardinimerc,ipswich,england,10/02/19,championship,0,3,2019-02-10 00:34:15.048645,norwich,1.87,2019-02-09 23:54:13,ah 1 -1.25,2
mardinimerc,spal,italy,10/02/19,serie a,1,2,2019-02-10 00:34:15.054739,atalanta,1.74,2019-02-09 23:54:13,ah 1 -1.25,2
mardinimerc,frosinone,italy,10/02/19,serie a,1,0,2019-02-10 00:34:15.059866,sampdoria,1.50,2019-02-09 23:54:13,1,3
mardinimerc,psv,netherlands,10/02/19,eredivisie,2,2,2019-02-10 00:34:15.064023,utrecht,1.57,2019-02-09 23:54:13,2,2
Surpitch,excelsior,netherlands,10/02/19,eredivisie,1,4,2019-02-10 02:34:18.880143,fortuna sittard,1.53,2019-02-10 02:15:21,under 3.5,2
Surpitch,ado den haag,netherlands,10/02/19,eredivisie,2,3,2019-02-10 02:34:18.889489,fc emmen,1.53,2019-02-10 02:15:21,btts yes,1.5
Surpitch,vitesse,netherlands,10/02/19,eredivisie,1,2,2019-02-10 02:34:18.897184,fc groningen,1.66,2019-02-10 02:15:21,btts yes,1.5
Surpitch,psv,netherlands,10/02/19,eredivisie,2,2,2019-02-10 02:34:18.904397,fc utrecht,1.65,2019-02-10 02:15:21,2,1
Surpitch,chelsea,england,10/02/19,premier league,2,2,2019-02-10 02:34:18.911272,manchester city,1.50,2019-02-10 02:15:21,1,2
Surpitch,fc barcelona,spain,10/02/19,la liga,0,0,2019-02-10 02:34:18.917767,athletic bilbao,1.63,2019-02-10 02:15:21,btts yes,1.5
Surpitch,lille,france,10/02/19,ligue 1,2,0,2019-02-10 02:34:18.924673,ea guingamp,1.56,2019-02-10 02:15:21,dnb 2,3
Surpitch,perth glory,australia,10/02/19,a-league,4,2,2019-02-10 02:34:18.932167,melbourne victory,1.54,2019-02-10 02:15:21,btts yes,2
Surpitch,ipswich town,england,10/02/19,championship,0,3,2019-02-10 02:34:18.939311,norwich city,1.35,2019-02-10 02:15:21,1,3
Surpitch,boca juniors,argentina,10/02/19,primera division,1,1,2019-02-10 11:34:21.756215,belgrano,1.75,2019-02-10 02:15:21,2,1.5
Surpitch,legia warszawa,poland,10/02/19,ekstraklasa,,,2019-02-10 11:34:21.763670,wisla plock,1.52,2019-02-10 02:15:21,dnb 2,2
