Author,AwayTeam,Country,Date,Division,FTAG,FTHG,Fetched at,HomeTeam,Odds,Outcome,Post Time,Prediction,Return,Type of Bet,Wager
coolcoconut123,lbeck,germany,10/08/18,regionalliga north,0.0,0.0,2018-08-09 20:34:41.907779,wolfsburg ii,1.70,Lost,2018-08-09 19:58:07.000000,over 2.5,0.0,Over,2.0
coolcoconut123,verl,germany,10/08/18,regionalliga west,0.0,0.0,2018-08-09 20:34:41.914418,rdinghausen,1.72,Lost,2018-08-09 19:58:07.000000,over 2.5,0.0,Over,2.0
coolcoconut123,sirius,sweden,10/08/18,allsvenskan,3.0,2.0,2018-08-09 20:34:41.937075,ifk gteborg,1.66,Win,2018-08-09 19:58:07.000000,btts yes,3.32,BTTS,2.0
coolcoconut123,mlmo ff,sweden,10/08/18,allsvenskan,1.0,0.0,2018-08-09 20:34:41.944338,dalkurd,1.80,Lost,2018-08-09 19:58:07.000000,btts yes,0.0,BTTS,2.0
coolcoconut123,degerfors,sweden,10/08/18,superettan,2.0,1.0,2018-08-09 20:34:41.950935,landskrona,1.70,Win,2018-08-09 19:58:07.000000,btts yes,3.4,BTTS,2.0
coolcoconut123,le havre,france,10/08/18,ligue 2,1.0,0.0,2018-08-09 20:34:41.956431,red star,2.62,Win,2018-08-09 19:58:07.000000,2,5.24,1X2,2.0
coolcoconut123,henan jianye,china,10/08/18,super league,0.0,2.0,2018-08-09 20:34:41.961890,tianjin teda,1.75,Lost,2018-08-09 19:58:07.000000,btts yes,0.0,BTTS,2.0
poisonfoot,greuther furth,germany,10/08/18,2 bundesliga,1.0,1.0,2018-08-09 22:34:32.085641,ingolstadt,1.89,Lost,2018-08-09 22:18:09,ah 1 -0.75,0.0,AH,1.0
coolcoconut123,bayern munich ii,*~~germany,10/08/18,regionalliga bayern,,,2018-08-10 06:34:35.711511,schalding-heining,-.--,Push,2018-08-09 19:58:07,over 1.5 a,2.0,,2.0
iamspok,slaven koprivnica,croatia,10/08/18,1.hnl,,,2018-08-10 09:34:28.720423,dinamo zagreb,1.75,Push,2018-08-10 09:33:44,2 +1.75,2.0,,2.0
iamspok,leicester city,english,10/08/18,premier league,,,2018-08-10 09:34:28.730623,manchester united,2.05,Push,2018-08-10 09:33:44,2 +1,3.0,,3.0
iamspok,toulouse,france,10/08/18,ligue 1,0.0,4.0,2018-08-10 09:34:28.739215,marseille,1.675,Push,2018-08-10 09:33:44,1 -1,2.0,,2.0
iamspok,vitria guimares,portugal,10/08/18,primeira liga,2.0,3.0,2018-08-10 09:34:28.748135,benfica,1.80,Push,2018-08-10 09:33:44,1 -1.5,2.0,,2.0
Sti302fuso,troms il,norway,10/08/18,eliteserien,0.0,1.0,2018-08-10 10:34:29.127473,sandefjord fotball,1.35,Lost,2018-08-10 10:03:19,x2,0.0,DC,5.0
coolcoconut123,,*,10/08/18,,,,2018-08-10 23:34:36.442100,,.,Push,2018-08-09 19:58:07,None,,,
LowlyPunter,,,10/08/18,,,,2018-08-10 23:34:36.697553,,,Push,2018-08-09 20:50:16,None,,,
