Author,AwayTeam,Country,Date,Division,FTAG,FTHG,Fetched at,HomeTeam,Odds,Outcome,Post Time,Prediction,Return,Type of Bet,Wager
tropianhs,nice,france,10/12/17,ligue 1,2,1,2017-12-09 22:00:08.714751,nantes,3.85,Win,2017-12-09 21:52:47.000000,2,26.95,1X2,7.0
Baaazzzz,atletico madrid,spain,10/12/17,la liga,1,0,2017-12-09 22:00:08.791898,betis seville,1.79,Win,2017-12-09 21:55:17.000000,2,3.58,1X2,2.0
coolcoconut123,roma,italy,10/12/17,serie a,0,0,2017-12-09 23:30:08.694853,chievo,2.62,Lost,2017-12-09 23:14:21,ah 2 -1,0.0,AH,2.0
coolcoconut123,lyon,france,10/12/17,ligue 1,2,1,2017-12-09 23:30:08.716562,amiens,1.66,Win,2017-12-09 23:14:21,over 1.5 a,3.32,Over Team,2.0
coolcoconut123,hertha berlin,german,10/12/17,bundesliga,1,1,2017-12-09 23:30:08.733341,augsburg,1.95,Win,2017-12-09 23:14:21,btts yes,3.9,BTTS,2.0
United689908,everton,england,10/12/17,premier league,1,1,2017-12-10 11:00:06.077587,liverpool,2.68,Win,2017-12-10 10:55:33,under 2.5,2.68,Under,1.0
United689908,manchester city,england,10/12/17,premier league,2,1,2017-12-10 11:00:06.101661,manchester united,1.9,Win,2017-12-10 10:55:33,over 2.5,1.9,Over,1.0
Kaizokugari,manchester city,england,10/12/17,premier league,2,1,2017-12-10 12:00:06.487831,manchester united,3.85,Lost,2017-12-10 11:51:35,1,0.0,1X2,1.5
Kaizokugari,psv,netherlands,10/12/17,eredivisie,0,3,2017-12-10 12:00:06.508004,ajax,6.2,Lost,2017-12-10 11:51:35,eh x+1,0.0,EH,1.5
Kaizokugari,lausanne,switzerland,10/12/17,super league,2,1,2017-12-10 12:00:06.523308,lugano,5.5,Win,2017-12-10 11:51:35,2,8.25,1X2,1.5
johnnyc91,hertha berlin,germany,10/12/17,bundesliga,1,1,2017-12-10 15:00:06.009998,augsburg,2.0,Win,2017-12-10 14:43:16,btts yes,6.0,BTTS,3.0
johnnyc91,nice,france,10/12/17,ligue 1,2,1,2017-12-10 15:00:06.030056,nantes,2.05,Lost,2017-12-10 14:43:16,h,0.0,1X2,3.0
johnnyc91,st. etienne,france,10/12/17,ligue 1,0,3,2017-12-10 15:00:06.045281,marseille,1.45,Win,2017-12-10 14:43:16,h,4.35,1X2,3.0
