Author,AwayTeam,Country,Date,Division,FTAG,FTHG,Fetched at,HomeTeam,Odds,Outcome,Post Time,Prediction,Return,Type of Bet,Wager
peruvianhope,chile,world,10/10/17,world cup,0,3,2017-10-09 23:00:09.202429,brazil,1.76,Win,2017-10-09 22:34:45.000000,1,176.0,1X2,100
peruvianhope,venezuela,world,10/10/17,world cup,1,0,2017-10-09 23:00:09.222690,paraguay,1.5,Win,2017-10-09 22:34:45.000000,ah 2 +2,75.0,AH,50
trksab,altrincham,england,10/10/17,northern premier league,1,1,2017-10-10 06:30:06.684883,whitby,1.8,Lost,2017-10-10 06:19:14,2,0.0,1X2,1
trksab,barwell,england,10/10/17,northern premier league,1,1,2017-10-10 06:30:06.706052,rushall,2.0,Lost,2017-10-10 06:19:14,2,0.0,1X2,1
trksab,dundalk,ireland,10/10/17,fai cup,4,2,2017-10-10 07:30:07.793882,shamrock rovers,2.05,Win,2017-10-10 06:19:14,2,2.05,1X2,1
HJGP,warrington,england,10/10/17,northern premier league,0,2,2017-10-10 09:00:05.864982,ashton utd,2.05,Lost,2017-10-10 08:53:26,2,0.0,1X2,1
HJGP,barwell,england,10/10/17,northern premier league,1,1,2017-10-10 09:00:05.887759,rushall,1.99,Lost,2017-10-10 08:53:26,2,0.0,1X2,1
WaRAmBusHeR,sweden,world,10/10/17,world cup 2018,0,2,2017-10-10 12:00:06.621497,netherlands,1.5,Lost,2017-10-10 11:50:11,btts yes,0.0,BTTS,1
WaRAmBusHeR,sweden,world,10/10/17,world cup 2018,0,2,2017-10-10 12:00:06.642956,netherlands,2.0,Lost,2017-10-10 11:50:11,dc x2,0.0,DC,1
WaRAmBusHeR,bosnia & herzegovina,world,10/10/17,world cup 2018,2,1,2017-10-10 12:00:06.659551,estonia,2.05,Win,2017-10-10 11:50:11,btts yes,2.05,BTTS,1
WaRAmBusHeR,switzerland,world,10/10/17,world cup 2018,0,2,2017-10-10 12:00:06.676793,portugal,1.65,Win,2017-10-10 11:50:11,1,1.65,1X2,1
yerp0,gibraltar,world,11/10/17,world cup,0,4,2017-10-10 19:00:06.893954,greece,1.68,Win,2017-10-10 18:39:42,ah 2 +5,3.36,AH,2
yerp0,faroe islands,world,11/10/17,world cup,0,1,2017-10-10 19:00:06.914273,hungary,1.95,Push,2017-10-10 18:39:42,ah 1 -1,1.0,AH,1
yerp0,switzerland,world,11/10/17,world cup,0,2,2017-10-10 19:00:06.929612,portugal,4.0,Lost,2017-10-10 18:39:42,x,0.0,1X2,1
yerp0,belarus,world,11/10/17,world cup,1,2,2017-10-10 19:00:06.944897,france,2.18,Win,2017-10-10 18:39:42,u3.5,2.18,Under,1
