Author,AwayTeam,Country,Date,Division,FTAG,FTHG,Fetched at,HomeTeam,Odds,Outcome,Post Time,Prediction,Return,Type of Bet,Wager
poisonfoot,garcilaso,peru,11/09/18,primera division,4.0,1.0,2018-09-14 23:35:05.489006,binacional,3.4,Lost,2018-09-10 21:15:04,x,0.0,1X2,0.1
poisonfoot,fbc melgar,peru,11/09/18,primera division,0.0,0.0,2018-09-14 23:35:05.502218,ayacucho,3.3,Win,2018-09-10 21:15:04,x,0.33,1X2,0.1
GotTheNameIWanted,landskrona,sweden,11/09/18,superettan,2.0,1.0,2018-09-14 23:35:05.547084,falkenberg,1.53,Lost,2018-09-11 04:18:38,h,0.0,1X2,2.5
GotTheNameIWanted,landskrona,sweden,11/09/18,superettan,2.0,1.0,2018-09-14 23:35:05.576714,falkenberg,2.425,Lost,2018-09-11 04:18:38,ah h -1.5,0.0,AH,1.0
GotTheNameIWanted,landskrona,sweden,11/09/18,superettan,2.0,1.0,2018-09-14 23:35:05.591770,falkenberg,2.2,Lost,2018-09-11 04:18:38,h and o2.5,0.0,Over Team,1.0
GotTheNameIWanted,estonia,uefa,11/09/18,nations league,,,2018-09-14 23:35:05.610785,finland,1.57,Push,2018-09-11 04:18:38,h,2.0,,2.0
GotTheNameIWanted,estonia,uefa,11/09/18,nations league,,,2018-09-14 23:35:05.625160,finland,2.0,Push,2018-09-11 04:18:38,ah h -1,2.5,,2.5
GotTheNameIWanted,estonia,uefa,11/09/18,nations league,,,2018-09-14 23:35:05.639079,finland,2.2,Push,2018-09-11 04:18:38,h and btts no,1.0,,1.0
GotTheNameIWanted,greece,uefa,11/09/18,nations league,,,2018-09-14 23:35:05.654720,hungary,4.5,Push,2018-09-11 04:18:38,a and u2.5,1.5,,1.5
GotTheNameIWanted,croatia,uefa,11/09/18,nations league,,,2018-09-14 23:35:05.671869,spain,1.66,Push,2018-09-11 04:18:38,h,1.5,,1.5
GotTheNameIWanted,croatia,uefa,11/09/18,nations league,,,2018-09-14 23:35:05.682771,spain,2.15,Push,2018-09-11 04:18:38,ah h -1,1.0,,1.0
GotTheNameIWanted,croatia,uefa,11/09/18,nations league,,,2018-09-14 23:35:05.690606,spain,2.5,Push,2018-09-11 04:18:38,h and btts no,1.0,,1.0
GotTheNameIWanted,belarus,uefa,11/09/18,nations league,,,2018-09-14 23:35:05.699105,moldova,2.87,Push,2018-09-11 04:18:38,a and btts no,3.0,,3.0
GotTheNameIWanted,rep of ireland,international,11/09/18,match,,,2018-09-14 23:35:05.706940,poland,3.25,Push,2018-09-11 04:18:38,h and u2.5,1.0,,1.0
GotTheNameIWanted,rep of ireland,international,11/09/18,match,,,2018-09-14 23:35:05.714252,poland,1.55,Push,2018-09-11 04:18:38,h,2.0,,2.0
GotTheNameIWanted,switzerland,international,11/09/18,match,,,2018-09-14 23:35:05.725228,england,3.6,Push,2018-09-11 04:18:38,h and u2.5,1.5,,1.5
GotTheNameIWanted,switzerland,international,11/09/18,match,,,2018-09-14 23:35:05.740719,england,1.72,Push,2018-09-11 04:18:38,h,1.5,,1.5
GotTheNameIWanted,israel,international,11/09/18,match,,,2018-09-14 23:35:05.748115,northern ireland,3.5,Push,2018-09-11 04:18:38,h by 1,1.0,,1.0
GotTheNameIWanted,israel,international,11/09/18,match,,,2018-09-14 23:35:05.763323,northern ireland,3.75,Push,2018-09-11 04:18:38,h and u2.5,1.0,,1.0
GotTheNameIWanted,israel,international,11/09/18,match,,,2018-09-14 23:35:05.770670,northern ireland,2.1,Push,2018-09-11 04:18:38,h,1.0,,1.0
GotTheNameIWanted,costa rica,international,11/09/18,match,,,2018-09-14 23:35:05.781853,japan,1.5,Push,2018-09-11 04:18:38,ah +1a,2.0,,2.0
