Author,AwayTeam,Country,Date,Division,FTAG,FTHG,Fetched at,HomeTeam,Odds,Outcome,Post Time,Prediction,Return,Type of Bet,Wager
coolcoconut123,1. fc kln,germany,12/03/18,bundesliga,1.0,3.0,2018-03-11 23:34:21.332733,werder bremen,1.66,Win,2018-03-11 23:31:57.000000,btts yes,3.32,BTTS,2
coolcoconut123,real betis,spain,12/03/18,la liga,,,2018-03-11 23:34:21.344045,deportivo alaves,2.1,Push,2018-03-11 23:31:57.000000,1,2,,2
coolcoconut123,manchester city,england,12/03/18,premier league,2.0,0.0,2018-03-11 23:34:21.352239,stoke city,1.72,Win,2018-03-11 23:31:57.000000,ah 2 -1.5,3.44,AH,2
Sir_Blub,shamrock rovers,ireland,12/03/18,premier division,0.0,1.0,2018-03-12 04:34:13.002530,cork city,1.72,Win,2018-03-12 03:43:50,1,17.2,1X2,10
Sir_Blub,-,-,12/03/18,-,,,2018-03-12 04:34:13.015479,-,13.23,Push,2018-03-12 03:43:50,4-fold accumulator,10,,10
therealpyro,lokomotiv moscow,russia,12/03/18,premier league,2.0,0.0,2018-03-12 13:34:10.246829,ural,1.61,Win,2018-03-12 13:33:56,over 1.5,4.83,Over,3
therealpyro,kapfenberg,austria,12/03/18,erste liga,2.0,3.0,2018-03-12 13:34:10.252768,wattens,1.91,Win,2018-03-12 13:33:56,over 2.5,3.82,Over,2
therealpyro,fc emmen,netherlands,12/03/18,eerste divisie,3.0,2.0,2018-03-12 13:34:10.257650,oss,2.26,Lost,2018-03-12 13:33:56,dc 1x,0.0,DC,2
