Author,AwayTeam,Country,Date,Division,FTAG,FTHG,Fetched at,HomeTeam,Odds,Post Time,Prediction,Wager
mardinimerc,psg,europe,11/02/19,champions league,,,2019-02-11 12:34:29.737746,manchester united,1.61,2019-02-11 12:19:50.000000,dnb 1,3.0
mardinimerc,psg,europe,11/02/19,champions league,,,2019-02-11 12:34:29.773470,manchester united,1.9,2019-02-11 12:19:50.000000,over 1.5 h,1.5
mardinimerc,rotherham,england,11/02/19,championship,2,2,2019-02-11 12:34:29.803343,hull,1.75,2019-02-11 12:19:50.000000,1,1.5
mardinimerc,mk dons,england,11/02/19,league two,1,0,2019-02-11 12:34:29.823746,newport county,1.66,2019-02-11 12:19:50.000000,btts yes,1.5
mardinimerc,al qadisiya,saudi arabia,11/02/19,professional league,1,4,2019-02-11 12:34:29.833514,al hilal,1.72,2019-02-11 12:19:50.000000,over 2.5 h,2.0
coolcoconut123,blackpool,england,12/02/19,league one,1,1,2019-02-11 23:34:17.992602,sunderland,1.95,2019-02-11 22:39:35,btts yes,1.0
coolcoconut123,brackley town,england,12/02/19,national north,0,2,2019-02-11 23:34:18.002315,chorley,1.9,2019-02-11 22:39:35,over 1.5 h,1.0
coolcoconut123,psg,europe,12/02/19,champions league,,,2019-02-11 23:34:18.020577,manchester united,2.0,2019-02-11 22:39:35,over 1.5 h,1.0
Surpitch,psg,europe,12/02/19,champions league,,,2019-02-11 23:34:18.045256,manchester united,1.66,2019-02-11 23:05:41,dnb 1,2.0
Surpitch,psg,europe,12/02/19,champions league,,,2019-02-11 23:34:18.055355,manchester united,1.55,2019-02-11 23:05:41,btts yes,2.0
Surpitch,fc porto,europe,12/02/19,champions league,1,2,2019-02-11 23:34:18.062632,as roma,1.81,2019-02-11 23:05:41,x2,1.0
Surpitch,cs constantine,algeria,12/02/19,ligue 1,0,1,2019-02-11 23:34:18.070162,paradou ac,1.5,2019-02-11 23:05:41,under 2.5,1.5
Surpitch,carlisle,england,12/02/19,league two,,,2019-02-11 23:34:18.077451,crewe alexandra,1.76,2019-02-11 23:05:41,btts yes,1.0
Surpitch,rotherham united,england,12/02/19,league two,2,2,2019-02-11 23:34:18.084310,hull city,1.8,2019-02-11 23:05:41,1,1.5
Surpitch,karlsruher sc,germany,12/02/19,3. liga,1,1,2019-02-11 23:34:18.091622,fsv zwickau,1.45,2019-02-11 23:05:41,dnb 2,2.0
Surpitch,rotherham united,england,12/02/19,championship,2,2,2019-02-12 12:34:26.675873,hull city,1.8,2019-02-11 23:05:41,1,1.5
ExperientialAra,rotherham,england,12/02/19,league,2,2,2019-02-12 15:34:23.283500,hull,1.7,2019-02-12 14:54:12,1,5.0
ExperientialAra,porto,europe,12/02/19,champions league,1,2,2019-02-12 15:34:23.292650,as roma,1.7,2019-02-12 14:54:12,btts,5.0
ExperientialAra,psg,europe,12/02/19,champions league,,,2019-02-12 15:34:23.300264,man united,2.35,2019-02-12 14:54:12,1,2.0
ExperientialAra,zenit,europe,12/02/19,europa league,,,2019-02-12 15:34:23.309189,fenerbahce,1.42,2019-02-12 14:54:12,1x,2.0
ExperientialAra,bolton,england,12/02/19,league,1,0,2019-02-12 15:34:23.316662,birmingham,1.6,2019-02-12 14:54:12,1,5.0
ExperientialAra,qpr,england,12/02/19,league,1,2,2019-02-12 15:34:23.323502,bristol city,1.87,2019-02-12 14:54:12,1,5.0
ExperientialAra,southend,england,12/02/19,league,0,3,2019-02-12 15:34:23.341444,doncaster,1.6,2019-02-12 14:54:12,1,2.0
ExperientialAra,karlsruher,germany,12/02/19,league 3,1,1,2019-02-12 15:34:23.352618,zwickau,1.87,2019-02-12 14:54:12,2,5.0
ExperientialAra,solihull moors,england,12/02/19,league,3,0,2019-02-12 15:34:23.364305,aldershot,1.8,2019-02-12 14:54:12,2,5.0
ExperientialAra,vis pesaro,italy,12/02/19,league,0,1,2019-02-12 15:34:23.374385,pordedone,1.7,2019-02-12 14:54:12,1,2.0
ExperientialAra,al qadisiya,saudi arabia,12/02/19,league,1,4,2019-02-12 15:34:23.381699,al-hilal,1.6,2019-02-12 14:54:12,1 -1,5.0
ExperientialAra,albion rovers,scotland,12/02/19,league two,0,1,2019-02-12 15:34:23.389040,stirling,1.4,2019-02-12 14:54:12,1,5.0
ExperientialAra,,side picks:,12/02/19,,,,2019-02-12 23:34:14.530279,,,2019-02-12 14:54:12,None,
ExperientialAra,,,12/02/19,,,,2019-02-12 23:34:14.533680,,,2019-02-12 14:54:12,None,
