Author,AwayTeam,Country,Date,Division,FTAG,FTHG,Fetched at,HomeTeam,Odds,Outcome,Post Time,Prediction,Return,Type of Bet,Wager
coolcoconut123,sjk,finland,13/07/18,veikkausliiga,0,2,2018-07-13 00:34:21.390411,inter turku,1.8,Lost,2018-07-12 20:55:20.000000,btts yes,0.0,BTTS,2
coolcoconut123,stersunds fk,sweden,13/07/18,allsvenskan,1,1,2018-07-13 00:34:21.402457,malm ff,1.75,Win,2018-07-12 20:55:20.000000,btts yes,3.5,BTTS,2
coolcoconut123,stersunds fk,sweden,13/07/18,allsvenskan,1,1,2018-07-13 00:34:21.407965,malm ff,1.72,Lost,2018-07-12 20:55:20.000000,over 2.5,0.0,Over,2
coolcoconut123,trelleborg,sweden,13/07/18,allsvenskan,2,2,2018-07-13 00:34:21.420415,dalkurd,1.75,Win,2018-07-12 20:55:20.000000,btts yes,3.5,BTTS,2
coolcoconut123,rebro,sweden,13/07/18,allsvenskan,0,2,2018-07-13 00:34:21.434775,ifk gteborg,2.1,Lost,2018-07-12 20:55:20.000000,dnb 2,0.0,DNB,2
coolcoconut123,rebro,sweden,13/07/18,allsvenskan,0,2,2018-07-13 00:34:21.442042,ifk gteborg,2.5,Lost,2018-07-12 20:55:20.000000,over 1.5 a,0.0,Over Team,2
