Author,AwayTeam,Country,Date,Division,FTAG,FTHG,Fetched at,HomeTeam,Odds,Outcome,Post Time,Prediction,Return,Type of Bet,Wager
coolcoconut123,shanghai sipg,china,14/09/18,super league,5.0,2.0,2018-09-17 23:34:23.777872,tianjin teda,1.5,Win,2018-09-13 20:15:13,over 1.5 a,3.0,Over Team,2.0
coolcoconut123,shanghai sipg,china,14/09/18,super league,5.0,2.0,2018-09-17 23:34:23.790711,tianjin teda,1.61,Win,2018-09-13 20:15:13,btts yes,3.22,BTTS,2.0
coolcoconut123,beijing guoan,china,14/09/18,super league,0.0,1.0,2018-09-17 23:34:23.819197,guangzhou evergrande,1.9,Lost,2018-09-13 20:15:13,btts & over 3.5,0.0,Over,2.0
coolcoconut123,varberg,sweden,14/09/18,superettan,1.0,1.0,2018-09-17 23:34:23.854291,halmstad,1.57,Lost,2018-09-13 20:15:13,over 1.5 h,0.0,Over Team,2.0
coolcoconut123,varberg,sweden,14/09/18,superettan,1.0,1.0,2018-09-17 23:34:23.886868,halmstad,1.7,Win,2018-09-13 20:15:13,btts yes,3.4,BTTS,2.0
coolcoconut123,lorient,france,14/09/18,ligue 2,3.0,0.0,2018-09-17 23:34:23.904187,red star,2.5,Win,2018-09-13 20:15:13,over 1.5 a,5.0,Over Team,2.0
coolcoconut123,le havre,france,14/09/18,ligue 2,1.0,0.0,2018-09-17 23:34:23.914163,nancy,2.4,Win,2018-09-13 20:15:13,2,4.8,1X2,2.0
poisonfoot,g.a. eagles,netherlands,14/09/18,eerste divisie,2.0,3.0,2018-09-17 23:34:23.933836,jong az,2.1,Lost,2018-09-14 11:45:27,2,0.0,1X2,0.45
Onetouchables,saint etienne,france,14/09/18,ligue 1,,,2018-09-17 23:34:23.954860,psg,1.66,Push,2018-09-13 21:46:03,under 0.5 a,1.5,,1.5
Onetouchables,rennes,france,14/09/18,ligue 1,1.0,2.0,2018-09-17 23:34:23.963173,nice,1.5,Lost,2018-09-13 21:46:03,under 1.5 h,0.0,Under Team,2.5
Hitlers_Art_Teacher,west brom,england,13/09/18,championship,1.0,1.0,2018-09-17 23:34:23.983810,birmingham,1.71,Push,2018-09-13 11:45:14,dnb 2,1.5,DNB,1.5
mart9441,jena,germany,14/09/18,3. liga,0.0,2.0,2018-09-17 23:34:24.059682,braunschweig,2.02,Win,2018-09-14 08:03:34,1,2.02,1X2,1.0
GotTheNameIWanted,eintracht frankfurt,germany,15/09/18,bundesliga,1.0,3.0,2018-09-17 23:34:24.091220,borussia dortmund,1.4,Win,2018-09-14 17:15:23,h,2.0999999999999996,1X2,1.5
GotTheNameIWanted,eintracht frankfurt,germany,15/09/18,bundesliga,1.0,3.0,2018-09-17 23:34:24.100075,borussia dortmund,2.0,Lost,2018-09-14 17:15:23,h and o2.5,0.0,Over Team,1.5
GotTheNameIWanted,psv reserves,netherlands,15/09/18,eerste divise,,,2018-09-17 23:34:24.107018,nec,1.55,Push,2018-09-14 17:15:23,ah -1h,2.0,,2.0
