Author,AwayTeam,Country,Date,Division,FTAG,FTHG,Fetched at,HomeTeam,Odds,Outcome,Post Time,Prediction,Return,Type of Bet,Wager
Oxy_yx,parana,brazil,14/11/17,serie b,0,0,2017-11-14 14:30:08.891989,santa cruz,1.65,Lost,2017-11-14 14:08:46.000000,2,0.0,1X2,1.0
coolcoconut123,so paulo,brazil,15/11/17,serie a,0,1,2017-11-14 19:00:10.035079,grmio,1.44,Lost,2017-11-14 18:52:54,over 1.5,0.0,Over,1.5
coolcoconut123,so paulo,brazil,15/11/17,serie a,0,1,2017-11-14 19:00:10.056488,grmio,2.0,Lost,2017-11-14 18:52:54,btts yes,0.0,BTTS,1.0
coolcoconut123,so paulo,brazil,15/11/17,serie a,0,1,2017-11-14 19:00:10.073084,grmio,1.57,Lost,2017-11-14 18:52:54,over 0.5 a,0.0,Over Team,1.0
coolcoconut123,so paulo,brazil,15/11/17,serie a,0,1,2017-11-14 19:00:10.089658,grmio,1.6,Win,2017-11-14 18:52:54,under 2.5,1.6,Under,1.0
coolcoconut123,so paulo,brazil,15/11/17,serie a,0,1,2017-11-14 19:00:10.106159,grmio,3.1,Lost,2017-11-14 18:52:54,x,0.0,1X2,0.5
therealpyro,honduras,world,15/11/17,world cup 2018,1,3,2017-11-14 22:00:10.815595,australia,2.45,Win,2017-11-14 21:43:47,btts yes,2.45,BTTS,1.0
therealpyro,misr elmaqasah,egypt,15/11/17,premier league,3,3,2017-11-14 22:00:10.837298,wadi degla,2.6,Win,2017-11-14 21:43:47,over 2.5,2.6,Over,1.0
therealpyro,fredericia,denmark,15/11/17,1st division,3,2,2017-11-14 22:00:10.853956,nykobing,3.01,Lost,2017-11-14 21:43:47,1,0.0,1X2,1.0
therealpyro,sanarate,guatemala,15/11/17,liga nacional,1,0,2017-11-14 22:00:10.870658,marquense,3.55,Lost,2017-11-14 21:43:47,eh x -1,0.0,EH,1.0
therealpyro,municipal,guatemala,15/11/17,liga nacional,1,1,2017-11-14 22:00:10.887500,antigua,5.05,Lost,2017-11-14 21:43:47,2,0.0,1X2,1.0
therealpyro,municipal,guatemala,15/11/17,liga nacional,1,1,2017-11-14 22:00:10.904267,antigua,2.1,Lost,2017-11-14 21:43:47,over 2.5,0.0,Over,1.0
therealpyro,alianza fc,el salvador,15/11/17,primera division,1,0,2017-11-14 22:00:10.921013,municipal limeno,3.31,Push,2017-11-14 21:43:47,ah 2 -1,1.0,AH,1.0
therealpyro,alianza fc,el salvador,15/11/17,primera division,1,0,2017-11-14 22:00:10.937757,municipal limeno,2.1,Lost,2017-11-14 21:43:47,over 2.5,0.0,Over,1.0
therealpyro,suchitepequez,guatemala,15/11/17,liga nacional,1,4,2017-11-14 22:00:10.954479,guastatoya,4.4,Win,2017-11-14 21:43:47,ah 1 -2,4.4,AH,1.0
mart9441,jnkping,sweden,16/11/17,allsvenskan relegation,0,2,2017-11-15 17:00:06.870198,trelleborgs,1.18,Win,2017-11-15 16:33:25,under 3.5,3.54,Under,3.0
GonnSoares,fluminense,brazil,16/11/17,serie a,1,3,2017-11-15 23:30:06.794999,corinthians,2.1,Win,2017-11-15 23:19:36,btts yes,2.1,BTTS,1.0
