Author,AwayTeam,Country,Date,Division,FTAG,FTHG,Fetched at,HomeTeam,Odds,Outcome,Post Time,Prediction,Return,Type of Bet,Wager
thepunterlife,borussia m'gladbach,germany,13/12/18,bundesliga,,,2018-12-14 00:34:13.886747,tsg hoffenheim,1.36*,Push,2018-12-13 15:03:28.000000,btts yes,1.0,,1.0
coolcoconut123,albacete,spain,15/12/18,segunda division,2.0,1.0,2018-12-14 22:34:16.286711,numancia,2.62,Win,2018-12-14 22:20:32,dnb 2,2.62,DNB,1.0
coolcoconut123,norwich city,england,15/12/18,championship,2.0,2.0,2018-12-14 22:34:16.291999,bristol city,1.80,Push,2018-12-14 22:20:32,dnb 2,1.0,DNB,1.0
coolcoconut123,rayo vallecano,spain,15/12/18,la liga,0.0,1.0,2018-12-14 22:34:16.295938,real madrid,2.00,Win,2018-12-14 22:20:32,ah 2 2.25,2.0,AH,1.0
coolcoconut123,psv,netherlands,15/12/18,eredivisie,4.0,0.0,2018-12-14 22:34:16.300031,heracles,2.10,Win,2018-12-14 22:20:32,over 2.5 a,2.1,Over Team,1.0
coolcoconut123,mallorca,spain,15/12/18,segunda division,,,2018-12-14 22:34:16.304108,sporting gijon,2.00,Push,2018-12-14 22:20:32,btts yes,1.0,,1.0
poisonfoot,levante b,spain,15/12/18,segunda division b group 3,0.0,1.0,2018-12-15 14:34:18.177140,villarreal b,2.05,Lost,2018-12-15 13:43:43,btts yes,0.0,BTTS,0.25
