Author,AwayTeam,Country,Date,Division,FTAG,FTHG,Fetched at,HomeTeam,Odds,Outcome,Post Time,Prediction,Return,Type of Bet,Wager
coolcoconut123,lyon,france,17/01/18,ligue 1,2.0,0.0,2018-01-16 21:34:15.117572,guingamp,2.05,Win,2018-01-16 21:30:59.000000,over 1.5 a,4.1,Over Team,2
coolcoconut123,montpellier,france,17/01/18,ligue 1,1.0,1.0,2018-01-16 21:34:15.123386,amiens sc,1.6,Push,2018-01-16 21:30:59.000000,dnb 2,2.0,DNB,2
coolcoconut123,dijon,france,17/01/18,ligue 1,,,2018-01-16 21:34:15.127634,psg,1.25,Push,2018-01-16 21:30:59.000000,ah 1 -1,2,,2
domymmo_c,troyes,france,18/01/18,ligue one,1.0,3.0,2018-01-17 17:34:14.947721,angers,3.2,Lost,2018-01-17 17:23:58,x,0.0,1X2,1
domymmo_c,rennes,france,18/01/18,ligue one,2.0,1.0,2018-01-17 17:34:14.953406,lille,3.1,Lost,2018-01-17 17:23:58,x,0.0,1X2,1
