Author,AwayTeam,Country,Date,Division,FTAG,FTHG,Fetched at,HomeTeam,Odds,Outcome,Post Time,Prediction,Return,Wager
coolcoconut123,bayern munich ii,german,17/07/18,regionalliga,,,2018-07-16 22:34:28.362331,ingolstadt ii,---,Push,2018-07-16 22:10:47.000000,btts yes,2,2
coolcoconut123,bayern munich ii,german,17/07/18,regionalliga,,,2018-07-16 22:34:28.367613,ingolstadt ii,---,Push,2018-07-16 22:10:47.000000,over 3 gl,2,2
