Author,AwayTeam,Country,Date,Division,FTAG,FTHG,Fetched at,HomeTeam,Odds,Outcome,Post Time,Prediction,Return,Type of Bet,Wager
coolcoconut123,juventus,italy,16/12/17,serie a,3,0,2017-12-16 12:30:09.188804,bologna,1.6,Win,2017-12-16 10:40:42.000000,over 1.5 a,3.2,Over Team,2.0
coolcoconut123,bayer leverkusen,germany,16/12/17,bundesliga,4,4,2017-12-16 12:30:09.227212,hannover 96,1.7,Win,2017-12-16 10:40:42.000000,over 1.5 a,3.4,Over Team,2.0
coolcoconut123,hertha berlin,germany,16/12/17,bundesliga,3,2,2017-12-16 12:30:09.278496,rb leizpig,1.83,Win,2017-12-16 10:43:45.000000,btts yes,3.66,BTTS,2.0
coolcoconut123,genk,belgium,16/12/17,first division a,1,1,2017-12-16 12:30:09.300191,royal chaleroi,1.72,Push,2017-12-16 10:43:45.000000,dnb 1,2.0,DNB,2.0
js904,melbourne victory,australia,17/12/17,a league,0,2,2017-12-17 08:00:08.346100,brisbane roar,1.85,Push,2017-12-17 07:42:58,ah a -0.25,0.25,AH,0.25
js904,menemen,turkey,17/12/17,2. lig red group,0,1,2017-12-17 08:30:05.866797,eyupspor,2.02,Push,2017-12-17 07:42:58,ah h +0.75,0.25,AH,0.25
js904,tsw pegasus,hong kong,17/12/17,sapling cup,3,0,2017-12-17 08:30:05.882964,rangers,1.74,Win,2017-12-17 07:42:58,a,0.435,1X2,0.25
TheCrewL717,man united,england,17/12/17,premier league,2,1,2017-12-17 10:30:06.602732,west brom,1.61,Win,2017-12-17 10:23:48,2,1.61,1X2,1.0
TheCrewL717,liverpool,england,17/12/17,premier league,4,0,2017-12-17 10:30:06.623036,bournemouth,1.53,Win,2017-12-17 10:23:48,2,1.53,1X2,1.0
TheCrewL717,peterborough,england,17/12/17,league one,3,2,2017-12-17 10:30:06.638859,fleetwood,1.83,Push,2017-12-17 10:23:48,dnb 1,,,
js904,osmanlispor u21,turkey,17/12/17,ligi u21,1,5,2017-12-17 10:30:06.744832,beikta u21,1.71,Win,2017-12-17 07:42:58,ah h -1,0.4275,AH,0.25
js904,alcorcon ii,spain,17/12/17,tercera division,0,0,2017-12-17 10:30:06.761095,villaverde boetticher,2.02,Push,2017-12-17 07:42:58,ah a 0,0.25,AH,0.25
js904,rsd alcal,spain,17/12/17,tercera division,1,0,2017-12-17 10:30:06.777420,tres cantos cf,2.25,Lost,2017-12-17 07:42:58,ah h 0,0.0,AH,0.25
js904,menemen,turkey,17/12/17,2 lig red group,0,1,2017-12-17 12:00:07.018512,eyupspor,2.02,Push,2017-12-17 07:42:58,ah h +0.75,0.25,AH,0.25
Kaizokugari,antwerp,belgium,17/12/17,jupiler league,2,1,2017-12-17 13:30:06.505148,waregem,4.0,Win,2017-12-17 13:26:09,2,6.0,1X2,1.5
Kaizokugari,gimnastic,spain,17/12/17,laliga2,0,2,2017-12-17 13:30:06.525476,leonesa,5.1,Lost,2017-12-17 13:26:09,eh x+1,0.0,EH,1.5
js904,lugo,spain,17/12/17,la liga 2,0,3,2017-12-17 15:00:07.256230,huesca,1.88,Push,2017-12-17 07:42:58,ah a +0.75,0.25,AH,0.25
js904,young boys,switzerland,17/12/17,super league,4,2,2017-12-17 15:00:07.272301,luzern,1.79,Lost,2017-12-17 07:42:58,ah h +1,0.0,AH,0.25
js904,peterborough,england,17/12/17,league 1,3,2,2017-12-17 15:00:07.288415,fleetwood,1.85,Lost,2017-12-17 07:42:58,ah h 0,0.0,AH,0.2
js904,arouca,portugal,17/12/17,liga pro,0,2,2017-12-17 15:00:07.304464,penafiel,2.01,Lost,2017-12-17 07:42:58,ah a 0,0.0,AH,0.25
js904,sturm graz,austria,17/12/17,bundesliga,0,1,2017-12-17 15:30:07.141326,austria wien,1.77,Push,2017-12-17 07:42:58,ah a -0.25,0.25,AH,0.25
js904,monopoli,italy,17/12/17,serie c,0,2,2017-12-17 15:30:07.157469,lecce,1.71,Push,2017-12-17 07:42:58,ah a +1.25,0.25,AH,0.25
js904,siracusa,italy,17/12/17,serie c,0,0,2017-12-17 15:30:07.173561,asd sicula,1.95,Push,2017-12-17 07:42:58,ah a 0,0.25,AH,0.25
