Author,AwayTeam,Country,Date,Division,FTAG,FTHG,Fetched at,HomeTeam,Odds,Outcome,Post Time,Prediction,Return,Type of Bet,Wager
Nyrociel,kalmar,sweden,17/05/18,allsvenskan,1.0,2.0,2018-05-17 09:34:25.477669,brommapojkarna,2.15,Lost,2018-05-17 08:40:45.000000,2,0.0,1X2,2.0
Nyrociel,hnk cibalia,croatia,17/05/18,1. hnl,1.0,2.0,2018-05-17 09:34:25.483250,nk lokomotiva zagreb,2.1,Win,2018-05-17 08:40:45.000000,1,3.1500000000000004,1X2,1.5
Nyrociel,breiablik ubk,iceland,17/05/18,pepsideild,1.0,1.0,2018-05-17 20:34:21.943027,kr reykjavkur,2.2,Push,2018-05-17 08:40:45,2 dnb,1.0,DNB,1.0
coolcoconut123,brndby,denmark,18/05/18,superligaen,2.0,2.0,2018-05-17 20:34:21.960137,horsens,2.05,Win,2018-05-17 20:01:09,btts & over 2.5,4.1,Over,2.0
coolcoconut123,sporting gijn,spain,18/05/18,segunda division,,,2018-05-17 20:34:21.967492,tenerife,1.9,Push,2018-05-17 20:01:09,dnb 2,2.0,,2.0
Maggi96,erzgebirge aue,germany,18/05/18,bundesliga ii play-offs,,,2018-05-18 00:34:16.168165,karlsruhe,2.3,Push,2018-05-17 23:45:16,1,2.0,,2.0
Maggi96,starnjan,iceland,18/05/18,urvalsdeild,2.0,2.0,2018-05-18 00:34:16.174354,valur,1.72,Win,2018-05-17 23:45:16,btts yes,5.16,BTTS,3.0
mart9441,aue,germany,18/05/18,bundesliga 2 play-offs,0.0,0.0,2018-05-18 09:34:16.222214,karlsruher sc,2.46,Push,2018-05-18 09:00:53,ah 2 +0,0.3,AH,0.3
Maggi96,stjarnan,iceland,18/05/18,urvalsdeild,2.0,2.0,2018-05-18 10:34:17.704981,valur,1.72,Win,2018-05-17 23:45:16,btts yes,5.16,BTTS,3.0
ExperientialAra,club atletico mitre,argentina,18/05/18,copa argentina,0.0,1.0,2018-05-18 13:34:27.497076,defensy y justicia,1.51,Win,2018-05-18 12:47:39,1,7.55,1X2,5.0
ExperientialAra,paradou,algeria,18/05/18,division,0.0,0.0,2018-05-18 13:34:27.505244,constantine,1.36,Lost,2018-05-18 12:47:39,1,0.0,1X2,5.0
ExperientialAra,brondby,denmark,18/05/18,play offs,2.0,2.0,2018-05-18 13:34:27.509438,horsens,1.36,Lost,2018-05-18 12:47:39,2,0.0,1X2,5.0
ExperientialAra,paide,estonia,18/05/18,competition,1.0,1.0,2018-05-18 13:34:27.515651,tulevik,1.4,Lost,2018-05-18 12:47:39,2,0.0,1X2,2.0
ExperientialAra,hjk,finland,18/05/18,division,1.0,0.0,2018-05-18 13:34:27.521379,tps,1.54,Win,2018-05-18 12:47:39,2,3.08,1X2,2.0
ExperientialAra,cobh ramblers,ireland,18/05/18,1st division,1.0,0.0,2018-05-18 13:34:27.527018,finn harps,1.96,Lost,2018-05-18 12:47:39,1,0.0,1X2,5.0
ExperientialAra,ramat hasharon,israel,18/05/18,leumit,5.0,0.0,2018-05-18 13:34:27.533191,ironi nesher,1.3,Win,2018-05-18 12:47:39,2,2.6,1X2,2.0
ExperientialAra,h. bnei lod,israel,18/05/18,leumit,1.0,3.0,2018-05-18 13:34:27.541066,m. herzliya,2.0,Lost,2018-05-18 12:47:39,2,0.0,1X2,2.0
ExperientialAra,carpi,italy,18/05/18,serie b,0.0,2.0,2018-05-18 13:34:27.549158,bari,1.5,Win,2018-05-18 12:47:39,1,7.5,1X2,5.0
ExperientialAra,cibalia,croatia,18/05/18,hnl,1.0,2.0,2018-05-18 13:34:27.556873,lokomotiv zagreb,1.86,Win,2018-05-18 12:47:39,1,9.3,1X2,5.0
ExperientialAra,vorwarts steyr,austria,18/05/18,regionale,8.0,1.0,2018-05-18 13:34:27.562298,bad gleichenberg,1.61,Win,2018-05-18 12:47:39,2,8.05,1X2,5.0
ExperientialAra,chiangrai,thailand,18/05/18,premier league,3.0,0.0,2018-05-18 13:34:27.567752,ubon,1.7,Win,2018-05-18 12:47:39,2,3.4,1X2,2.0
ExperientialAra,kalmar,sweden,18/05/18,allsvenskan,1.0,2.0,2018-05-18 13:34:27.571920,if brommapojkarna,2.3,Lost,2018-05-18 12:47:39,2,0.0,1X2,2.0
ExperientialAra,chiasso,switzerland,18/05/18,challenge,2.0,5.0,2018-05-18 13:34:27.576937,vaduz,1.37,Win,2018-05-18 12:47:39,1,6.8500000000000005,1X2,5.0
