Author,AwayTeam,Country,Date,Division,FTAG,FTHG,Fetched at,HomeTeam,Odds,Outcome,Post Time,Prediction,Return,Type of Bet,Wager
ForeverLearning-,excelsior,netherlands,17/01/19,eredivisie,2.0,3.0,2019-01-17 14:34:17.622003,vitesse,1.5,Win,2019-01-17 13:44:39.000000,over 2.5,1.5,Over,1.0
ForeverLearning-,adelaide united,australia,17/01/19,a-league,2.0,1.0,2019-01-17 14:34:17.631441,western sydney wanderers,1.72,Win,2019-01-17 13:44:39.000000,over 2.5,1.72,Over,1.0
BlueN35,besiktas,turkey,17/01/19,super lg,,,2019-01-17 14:34:17.652065,akhisar bld.geng,1.66,Push,2019-01-17 13:57:15.000000,btts yes,1.0,,1.0
BlueN35,bayern munchen,germany,17/01/19,bundeslga,3.0,1.0,2019-01-17 14:34:17.661795,tsg hoffenheim,2.1,Push,2019-01-17 13:57:15.000000,ht away,1.0,,1.0
BlueN35,alaves,spain,17/01/19,primera division,0.0,4.0,2019-01-17 14:34:17.678198,getafe,1.85,Push,2019-01-17 13:57:15.000000,ft getafe,1.0,,1.0
ForeverLearning-,dordrecht,netherlands,17/01/19,eerste divisie,,,2019-01-17 17:34:18.336087,az reserves,1.57,Push,2019-01-17 13:44:39,over 2.5,1.0,,1.0
ForeverLearning-,dordrecht,netherlands,17/01/19,eerste divisie,,,2019-01-17 17:34:18.340779,az reserves,1.53,Push,2019-01-17 13:44:39,btts yes,1.0,,1.0
ForeverLearning-,dordrecht,netherlands,17/01/19,eerste divisie,,,2019-01-17 17:34:18.345209,az reserves,1.83,Push,2019-01-17 13:44:39,over 2.5 & btts yes,1.0,,1.0
ForeverLearning-,cholet,france,17/01/19,national,2.0,1.0,2019-01-17 19:34:20.816529,us quevilly,1.61,Lost,2019-01-17 13:44:39,under 2.5,0.0,Under,1.0
ForeverLearning-,entente ssg,france,17/01/19,national,,,2019-01-17 19:34:20.825873,rodez,1.66,Push,2019-01-17 13:44:39,under 2.5,1.0,,1.0
coolcoconut123,birmingham city,england,18/01/19,championship,1.0,3.0,2019-01-17 22:34:17.225727,norwich city,1.83,Win,2019-01-17 22:12:14,over 1.5 h,1.83,Over Team,1.0
thepunterlife,bayern munich,germany,18/01/19,bundesliga,3.0,1.0,2019-01-18 05:34:16.814060,hoffenheim,1.12,Win,2019-01-18 05:12:01,over 1.5,1.12,Over,1.0
RaBrussels,clermont,france,18/01/19,ligue 2,2.0,1.0,2019-01-18 18:34:08.965523,metz,1.98,Lost,2019-01-18 09:44:35,1,0.0,1X2,1.0
BlueN35,,,17/01/19,,,,2019-01-18 23:34:08.689572,,,Push,2019-01-17 13:57:15,None,,,
