Author,AwayTeam,Country,Date,Division,FTAG,FTHG,Fetched at,HomeTeam,Odds,Outcome,Post Time,Prediction,Return,Type of Bet,Wager
therealpyro,newcastle jets,australia,17/11/17,a-league,1,2,2017-11-17 00:00:11.304567,sydney fc,5.68,Lost,2017-11-16 17:01:31.000000,2,0.0,1X2,1.0
therealpyro,umraniyespor,turkey,17/11/17,tff 1. lig,0,0,2017-11-17 00:00:11.338834,erzurum bb,3.6,Lost,2017-11-16 17:01:31.000000,2,0.0,1X2,1.0
therealpyro,desna,ukraine,17/11/17,persha liga,1,0,2017-11-17 00:00:11.355223,kolos kovalyovka,3.0,Lost,2017-11-16 17:01:31.000000,1,0.0,1X2,1.0
therealpyro,f. voronezh,russia,17/11/17,division 1,0,5,2017-11-17 00:00:11.371697,orenburg,2.32,Win,2017-11-16 17:01:31.000000,over 2.5,2.32,Over,1.0
therealpyro,zvolen,slovakia,17/11/17,2. liga,0,3,2017-11-17 00:00:11.388166,bardejov,3.26,Lost,2017-11-16 17:01:31.000000,over 3.5,0.0,Over,1.0
therealpyro,l. mikulas,slovakia,17/11/17,2. liga,2,2,2017-11-17 00:00:11.404540,spisska nova ves,2.07,Lost,2017-11-16 17:01:31.000000,1,0.0,1X2,1.0
therealpyro,elversberg,germany,17/11/17,regionalliga sudwest,9,0,2017-11-17 00:00:11.444445,stadtallendorf,3.69,Lost,2017-11-16 17:01:31.000000,1,0.0,1X2,1.0
therealpyro,stutt. kickers,germany,17/11/17,regionalliga sudwest,0,1,2017-11-17 00:00:11.461025,worms,2.11,Lost,2017-11-16 17:01:31.000000,over 3,0.0,Over,1.0
therealpyro,ipswich,england,17/11/17,championship,2,2,2017-11-17 00:00:11.477548,hull city,5.6,Lost,2017-11-16 17:01:31.000000,over 4.5,0.0,Over,1.0
therealpyro,dulwich hamlet,england,17/11/17,bostik league,4,1,2017-11-17 00:00:11.494033,metropolitan,2.45,Lost,2017-11-16 17:01:31.000000,1,0.0,1X2,1.0
therealpyro,zlin,czech republic,17/11/17,1. liga,0,2,2017-11-17 00:00:11.510558,sigma olomouc,2.7,Win,2017-11-16 17:01:31.000000,ah 1 -1,2.7,AH,1.0
therealpyro,stalybridge,england,17/11/17,northern premier league,1,2,2017-11-17 00:00:11.527122,hednesford,2.0,Win,2017-11-16 17:01:31.000000,1,2.0,1X2,1.0
therealpyro,aris,cyprus,17/11/17,first division,0,0,2017-11-17 00:00:11.543705,ol. nicosia,2.65,Lost,2017-11-16 17:01:31.000000,over 2.5,0.0,Over,1.0
therealpyro,cd vitoria,spain,17/11/17,segunda division b - group 2,0,2,2017-11-17 00:00:11.560294,amorebieta,2.23,Lost,2017-11-16 17:01:31.000000,over 2.5,0.0,Over,1.0
therealpyro,lleida,spain,17/11/17,segunda division b - group 3,0,3,2017-11-17 00:00:11.576847,valencia b,2.38,Win,2017-11-16 17:01:31.000000,over 2.5,2.38,Over,1.0
therealpyro,levadiakos,greece,17/11/17,super league,1,2,2017-11-17 00:00:11.593502,olympiakos piraeus,2.72,Lost,2017-11-16 17:01:31.000000,under 2.5,0.0,Under,1.0
therealpyro,levadiakos,greece,17/11/17,super league,1,2,2017-11-17 00:00:11.610107,olympiakos piraeus,6.25,Lost,2017-11-16 17:01:31.000000,dc x2,0.0,DC,1.0
therealpyro,derby,england,17/11/17,championship,1,1,2017-11-17 00:00:11.626627,fulham,3.52,Lost,2017-11-16 17:01:31.000000,2,0.0,1X2,1.0
therealpyro,plzen,czech republic,17/11/17,1. liga,4,1,2017-11-17 00:00:11.643268,slovacko,2.4,Win,2017-11-16 17:01:31.000000,ah 2 -1,2.4,AH,1.0
therealpyro,plzen,czech republic,17/11/17,1. liga,4,1,2017-11-17 00:00:11.659933,slovacko,2.15,Win,2017-11-16 17:01:31.000000,over 2.5,2.15,Over,1.0
therealpyro,delfin,ecuador,17/11/17,serie a,3,3,2017-11-17 00:00:11.676465,clan juvenil,4.5,Push,2017-11-16 17:01:31.000000,dnb 1,1.0,DNB,1.0
Derninator,eintracht frankfurt,germany,17/11/17,bundesliga,1,1,2017-11-17 08:30:09.145797,tsg 1899 hoffenheim,2.2,Lost,2017-11-17 08:19:14,1,0.0,1X2,1.0
Derninator,manchester city,england,17/11/17,premier league,2,0,2017-11-17 08:30:09.166189,leicester,3.5,Push,2017-11-17 08:19:14,dc 1,1.0,DC,1.0
Derninator,rennes,france,17/11/17,ligue 1,1,2,2017-11-17 08:30:09.181706,strabourg,3.6,Lost,2017-11-17 08:19:14,2,0.0,1X2,1.0
Derninator,cd alaves,spain,17/11/17,laliga,1,4,2017-11-17 08:30:09.197174,getafe,2.2,Push,2017-11-17 08:19:14,dc 2,1.0,DC,1.0
pderivative,real madrid,spain,17/11/17,primera liga,0,0,2017-11-17 10:30:08.649927,atletico madrid,1.36,Win,2017-11-17 10:22:10,dc x2,1.36,DC,1.0
johnnyc91,swansea,england,18/11/17,prem,0,2,2017-11-17 18:00:11.141317,burnley,1.67,Win,2017-11-17 17:30:14,btts no,5.01,BTTS,3.0
johnnyc91,man city,england,18/11/17,prem,2,0,2017-11-17 18:00:11.161929,leicester,1.4,Lost,2017-11-17 17:30:14,o2.5,0.0,Over,3.0
johnnyc91,chelsea,england,18/11/17,prem,4,0,2017-11-17 18:00:11.177599,west brom,1.62,Win,2017-11-17 17:30:14,a,4.86,1X2,3.0
johnnyc91,brentford,england,18/11/17,championship,0,2,2017-11-17 18:00:11.193236,cardiff,1.62,Lost,2017-11-17 17:30:14,btts yes,0.0,BTTS,3.0
johnnyc91,ipswich,england,18/11/17,championship,2,2,2017-11-17 18:00:11.208936,hull,1.62,Win,2017-11-17 17:30:14,btts yes,4.86,BTTS,3.0
johnnyc91,bristol city,england,18/11/17,championship,0,0,2017-11-17 18:00:11.224572,sheff wed,1.67,Lost,2017-11-17 17:30:14,btts yes,0.0,BTTS,3.0
johnnyc91,wolves,england,18/11/17,championship,2,0,2017-11-17 18:00:11.240280,reading,1.95,Win,2017-11-17 17:30:14,a,5.85,1X2,3.0
johnnyc91,derby,england,18/11/17,championship,1,1,2017-11-17 18:00:11.255925,fulham,1.62,Win,2017-11-17 17:30:14,btts yes,4.86,BTTS,3.0
johnnyc91,motherwell,scotland,18/11/17,prem,2,0,2017-11-17 18:00:11.271663,aberdeen,1.75,Lost,2017-11-17 17:30:14,btts yes,0.0,BTTS,3.0
johnnyc91,kilmarnock,scotland,18/11/17,prem,0,0,2017-11-17 18:00:11.287446,dundee,1.75,Lost,2017-11-17 17:30:14,btts yes,0.0,BTTS,3.0
johnnyc91,real madrid,spain,18/11/17,la liga,0,0,2017-11-17 18:00:11.303179,atletico madrid,1.7,Lost,2017-11-17 17:30:14,btts yes,0.0,BTTS,3.0
johnnyc91,troyes,france,18/11/17,ligue 1,1,3,2017-11-17 18:00:11.318894,dijon,1.8,Win,2017-11-17 17:30:14,btts yes,5.4,BTTS,3.0
johnnyc91,rennes,france,18/11/17,ligue 1,1,2,2017-11-17 18:00:11.334613,strasbourg,1.91,Win,2017-11-17 17:30:14,btts yes,5.73,BTTS,3.0
johnnyc91,metz,france,18/11/17,ligue 1,0,0,2017-11-17 18:00:11.350384,toulouse,1.73,Lost,2017-11-17 17:30:14,h,0.0,1X2,3.0
johnnyc91,monchengladbach,german,18/11/17,bundesliga,4,2,2017-11-17 18:00:11.366107,hertha,1.7,Win,2017-11-17 17:30:14,btts yes,5.1,BTTS,3.0
johnnyc91,dungannon,northern ireland,18/11/17,prem,1,2,2017-11-17 18:00:11.382012,ballymena,1.5,Win,2017-11-17 17:30:14,btts yes,4.5,BTTS,3.0
Kaizokugari,newcastle jets,australia,18/11/17,a-league,1,2,2017-11-17 22:00:11.850324,sydney fc,5.7,Lost,2017-11-17 21:53:07,2,0.0,1X2,1.5
coolcoconut123,newcastle united,england,18/11/17,premier league,1,4,2017-11-17 22:30:09.846788,manchester united,1.28,Win,2017-11-17 22:02:32,1,2.56,1X2,2.0
coolcoconut123,bradford city,england,18/11/17,league one,2,1,2017-11-17 22:30:09.868095,wigan,5.5,Win,2017-11-17 22:02:32,2,11.0,1X2,2.0
tropianhs,rb leipzig,germany,18/11/17,bundesliga,2,2,2017-11-17 23:00:11.380003,bayer leverkusen,3.85,Win,2017-11-17 22:49:30,x,26.95,1X2,7.0
tropianhs,borussia monchengladbach,germany,18/11/17,bundesliga,4,2,2017-11-17 23:00:11.400131,hertha berlin,2.5,Win,2017-11-17 22:49:30,2,17.5,1X2,7.0
coolcoconut123,brackley town,england,18/11/17,national league north,0,2,2017-11-17 23:30:10.139349,bradford park avenue,1.75,Lost,2017-11-17 23:04:27,btts yes,0.0,BTTS,1.5
coolcoconut123,brackley town,england,18/11/17,national league north,0,2,2017-11-17 23:30:10.160979,bradford park avenue,1.8,Win,2017-11-17 23:04:27,ah 1 +1,1.8,AH,1.0
coolcoconut123,brackley town,england,18/11/17,national league north,0,2,2017-11-17 23:30:10.177743,bradford park avenue,1.9,Lost,2017-11-17 23:04:27,over 2.5,0.0,Over,1.0
coolcoconut123,brackley town,england,18/11/17,national league north,0,2,2017-11-17 23:30:10.194454,bradford park avenue,2.0,Lost,2017-11-17 23:04:27,over 1.5 a,0.0,Over Team,1.0
coolcoconut123,brackley town,england,18/11/17,national league north,0,2,2017-11-17 23:30:10.211220,bradford park avenue,3.25,Lost,2017-11-17 23:04:27,x,0.0,1X2,0.5
coolcoconut123,rb leipzig,germany,18/11/17,bundesliga,2,2,2017-11-18 01:00:07.022454,bayer leverkusen,2.25,Lost,2017-11-18 00:53:43,1,0.0,1X2,1.0
coolcoconut123,cheltenham town,england,18/11/17,league two,1,3,2017-11-18 01:00:07.051363,notts county,2.05,Win,2017-11-18 00:53:43,1,2.05,1X2,1.0
coolcoconut123,vvv venlo,netherlands,18/11/17,eredivise,1,1,2017-11-18 01:00:07.068058,feyenoord,1.83,Win,2017-11-18 00:53:43,over 0.5 a,1.83,Over Team,1.0
coolcoconut123,angers sco,france,18/11/17,ligue 1,1,1,2017-11-18 01:00:07.084717,guingamp,1.6,Win,2017-11-18 00:53:43,dc x2,1.6,DC,1.0
coolcoconut123,royal antwerp,belgium,18/11/17,first division a,1,0,2017-11-18 01:00:07.101465,as eupen,2.05,Lost,2017-11-18 00:53:43,over 1.5 h,0.0,Over Team,1.0
Derninator,rennes,france,17/11/17,ligue 1,1,2,2017-11-18 02:00:06.594743,strasbourg,3.6,Lost,2017-11-17 08:19:14,2,0.0,1X2,1.0
AAFTW,ac milan,italy,18/11/17,serie a,1,2,2017-11-18 08:00:09.214247,napoli,2.2,Push,2017-11-18 07:54:54,ah 1  -1,2.0,AH,2.0
vazman7,beroe,bulgaria,18/11/17,parva liga,1,0,2017-11-18 11:00:07.392705,pirin blagoevgrad,3.35,Lost,2017-11-18 10:35:20,x,0.0,1X2,1.0
vazman7,holstein kiel,germany,18/11/17,2. bundesliga,2,2,2017-11-18 11:00:07.413171,nurnberg,2.3,Lost,2017-11-18 10:35:20,2,0.0,1X2,1.0
vazman7,union berlin,germany,18/11/17,2. bundesliga,3,4,2017-11-18 11:00:07.428815,heidenheim,2.3,Lost,2017-11-18 10:35:20,2,0.0,1X2,1.0
vazman7,shirak,armenia,18/11/17,premier league,2,2,2017-11-18 11:00:07.444425,gandazar,2.65,Lost,2017-11-18 10:35:20,1,0.0,1X2,1.0
vazman7,tottenham,england,18/11/17,premier league,0,2,2017-11-18 11:00:07.460113,arsenal,3.1,Lost,2017-11-18 10:35:20,2,0.0,1X2,1.0
vazman7,botev plovdiv,bulgaria,18/11/17,parva liga,1,1,2017-11-18 11:00:07.475724,cska sofia,5.0,Win,2017-11-18 10:35:20,x,5.0,1X2,1.0
vazman7,magdeburg,germany,18/11/17,3. liga,2,1,2017-11-18 11:00:07.491360,fortuna koln,3.1,Lost,2017-11-18 10:35:20,1,0.0,1X2,1.0
vazman7,paderborn,germany,18/11/17,3. liga,3,0,2017-11-18 11:00:07.507020,unterchaching,2.79,Win,2017-11-18 10:35:20,2,2.79,1X2,1.0
vazman7,ofi,greece,18/11/17,football league,0,0,2017-11-18 11:00:07.523504,trikala,2.3,Lost,2017-11-18 10:35:20,2,0.0,1X2,1.0
vazman7,spartak moscow,russia,18/11/17,premier league,1,3,2017-11-18 11:00:07.539277,krasnodar,3.25,Lost,2017-11-18 10:35:20,2,0.0,1X2,1.0
vazman7,dunajska streda,slovakia,18/11/17,fortuna liga,0,0,2017-11-18 11:00:07.554969,zilina,4.0,Win,2017-11-18 10:35:20,x,4.0,1X2,1.0
vazman7,cracovia,poland,18/11/17,ekstraklasa,0,1,2017-11-18 11:00:07.570704,piast gliwice,3.42,Lost,2017-11-18 10:35:20,2,0.0,1X2,1.0
vazman7,eintracht frankfurt,germany,18/11/17,bundesliga,1,1,2017-11-18 11:00:07.586394,hoffenheim,3.65,Win,2017-11-18 10:35:20,x,3.65,1X2,1.0
vazman7,leipzig,germany,18/11/17,bundesliga,2,2,2017-11-18 11:00:07.602157,leverkusen,3.84,Win,2017-11-18 10:35:20,x,3.84,1X2,1.0
vazman7,freiburg,germany,18/11/17,bundesliga,1,3,2017-11-18 11:00:07.617949,wolfsburg,4.0,Lost,2017-11-18 10:35:20,x,0.0,1X2,1.0
vazman7,ferencvaros,hungary,18/11/17,otp bank liga,2,0,2017-11-18 11:00:07.633809,paks,3.6,Lost,2017-11-18 10:35:20,1,0.0,1X2,1.0
vazman7,dvtk,hungary,18/11/17,otp bank liga,0,1,2017-11-18 11:00:07.649589,puskas academy,3.94,Lost,2017-11-18 10:35:20,2,0.0,1X2,1.0
vazman7,mariupol,ukraine,18/11/17,premier league,1,3,2017-11-18 11:00:07.665304,karpaty,3.2,Lost,2017-11-18 10:35:20,2,0.0,1X2,1.0
vazman7,everton,england,18/11/17,premier league,2,2,2017-11-18 11:00:07.681118,crystal palace,3.3,Lost,2017-11-18 10:35:20,2,0.0,1X2,1.0
vazman7,huddersfield,england,18/11/17,premier league,0,4,2017-11-18 11:00:07.696864,bournemouth,5.25,Lost,2017-11-18 10:35:20,2,0.0,1X2,1.0
vazman7,rapid vienna,austria,18/11/17,tipico league,2,1,2017-11-18 11:00:07.712696,lask linz,3.43,Lost,2017-11-18 10:35:20,x,0.0,1X2,1.0
vazman7,teplice,czech republic,18/11/17,1. liga,0,1,2017-11-18 11:00:07.728505,brno,3.3,Lost,2017-11-18 10:35:20,x,0.0,1X2,1.0
vazman7,apollon smyrnis,greece,18/11/17,super league,0,1,2017-11-18 11:00:07.744264,larissa,4.18,Lost,2017-11-18 10:35:20,2,0.0,1X2,1.0
vazman7,cukaricki,serbia,18/11/17,superliga,2,1,2017-11-18 11:00:07.760065,napredak,3.05,Win,2017-11-18 10:35:20,2,3.05,1X2,1.0
vazman7,aris limassol,cyprus,18/11/17,first division,0,0,2017-11-18 11:00:07.775856,olympiacos nicosia,3.1,Lost,2017-11-18 10:35:20,1,0.0,1X2,1.0
vazman7,lazio,italy,18/11/17,serie a,1,2,2017-11-18 11:30:08.058046,roma,3.32,Lost,2017-11-18 10:35:20,2,0.0,1X2,1.0
vazman7,dukla prague,czech republic,18/11/17,1. liga,0,5,2017-11-18 11:30:08.073743,slavia prague,6.59,Lost,2017-11-18 10:35:20,x,0.0,1X2,0.75
vazman7,admira,austria,18/11/17,tipico league,3,2,2017-11-18 11:30:08.089487,austria vienna,3.93,Lost,2017-11-18 10:35:20,x,0.0,1X2,1.0
vazman7,wolfsberger,austria,18/11/17,tipico league,0,0,2017-11-18 11:30:08.105101,st. polten,3.0,Lost,2017-11-18 10:35:20,2,0.0,1X2,1.0
vazman7,monchengladbach,germany,18/11/17,bundesliga,4,2,2017-11-18 11:30:08.120858,hertha,2.65,Win,2017-11-18 10:35:20,2,2.65,1X2,1.0
vazman7,videoton,hungary,18/11/17,otp bank liga,5,2,2017-11-18 11:30:08.136574,debrecen,3.4,Lost,2017-11-18 10:35:20,x,0.0,1X2,1.0
vazman7,angers,france,18/11/17,ligue 1,1,1,2017-11-18 11:30:08.152411,guingamp,3.41,Win,2017-11-18 10:35:20,x,3.41,1X2,1.0
vazman7,rennes,france,18/11/17,ligue 1,1,2,2017-11-18 11:30:08.168150,strasbourg,3.4,Lost,2017-11-18 10:35:20,2,0.0,1X2,1.0
vazman7,real madrid,spain,18/11/17,la liga,0,0,2017-11-18 11:30:08.183887,atletico madrid,3.5,Win,2017-11-18 10:35:20,x,3.5,1X2,1.0
Kaizokugari,backley town,england,18/11/17,national league north,0,2,2017-11-18 13:00:08.693546,bradford pa,4.1,Win,2017-11-18 12:38:56,1,6.15,1X2,1.5
Kaizokugari,kv oostende,belgium,18/11/17,first division,0,0,2017-11-18 13:00:08.713815,standard lige,5.0,Lost,2017-11-18 12:38:56,2,0.0,1X2,1.5
zaneboy2,anderlecht,belgium,18/11/17,jupiler league,2,1,2017-11-18 13:30:07.932282,royal excel mouscron,1.78,Win,2017-11-18 13:08:53,btts yes,1.78,BTTS,1.0
zaneboy2,mnchengladbach,germany,18/11/17,bundesliga,4,2,2017-11-18 13:30:07.953783,hertha,1.65,Win,2017-11-18 13:08:53,btts yes,2.475,BTTS,1.5
peruvianhope,river plate,argentina,19/11/17,superliga,0,1,2017-11-18 23:00:09.402724,independiente,2.31,Lost,2017-11-18 18:06:12,ah 2 +0,0.0,AH,50.0
