Author,AwayTeam,Country,Date,Division,Fetched at,HomeTeam,Odds,Outcome,Post Time,Prediction,Return,Wager
thepunterlife,guingamp,france,19/01/19,ligue 1,2019-01-18 23:34:10.177807,psg,in-play market*,,2019-01-18 16:16:57.000000,psg 1st goal before 80:00,,1.0
thepunterlife,guingamp,france,19/01/19,ligue 1,2019-01-18 23:34:10.183164,psg,1.083*,,2019-01-18 16:16:57.000000,over 1.5,,1.0
coolcoconut123,perth glory,australia,19/01/19,a-league,2019-01-18 23:34:10.194306,melbourne city,2.50,,2019-01-18 21:37:07.000000,over 1.5 a,,1.0
coolcoconut123,torino,italy,19/01/19,serie a,2019-01-18 23:34:10.199619,as roma,2.30,,2019-01-18 21:37:07.000000,x2,,1.0
ForeverLearning-,brescia,italy,18/01/19,serie b,2019-01-18 23:34:10.211926,perugia,1.80,,2019-01-18 11:21:30.000000,btts yes,,1.0
ForeverLearning-,newcastle jets,australia,18/01/19,a-league,2019-01-18 23:34:10.217247,sydney fc,1.72,,2019-01-18 11:21:30.000000,over 2.5,,1.0
ForeverLearning-,newcastle jets,australia,18/01/19,a-league,2019-01-18 23:34:10.221200,sydney fc,1.61,,2019-01-18 11:21:30.000000,btts yes,,1.0
ForeverLearning-,newcastle jets,australia,18/01/19,a-league,2019-01-18 23:34:10.225191,sydney fc,2.00,,2019-01-18 11:21:30.000000,over 2.5 & btts yes,,1.0
tropianhs,vvv venlo,netherlands,18/01/19,eredivisie,2019-01-18 23:34:10.236610,den haag,3.48,,2019-01-18 15:11:08.000000,x,,2.5
tropianhs,parma,italy,18/01/19,seriea,2019-01-18 23:34:10.242034,udinese,2.15,,2019-01-18 15:11:08.000000,1,,2.5
blackandrose56,parma,italy,19/01/19,serie a,2019-01-19 04:34:18.517447,,2.15,,2019-01-19 04:18:10,1,,2.0
blackandrose56,,,19/01/19,,2019-01-19 04:34:18.527379,,,,2019-01-19 04:18:10,None,,
blackandrose56,sc freiburg,germany,19/01/19,bundesliga,2019-01-19 04:34:18.535333,,1.65,,2019-01-19 04:18:10,1,,2.0
blackandrose56,cardiff,england,19/01/19,premier league,2019-01-19 04:34:18.548530,,2.00,,2019-01-19 04:18:10,1,,3.0
blackandrose56,,play with your own risk and bet safe,19/01/19,ods from bet365,2019-01-19 04:34:18.552901,,,,2019-01-19 04:18:10,None,,
