Author,AwayTeam,Country,Date,Division,FTAG,FTHG,Fetched at,HomeTeam,Odds,Outcome,Post Time,Prediction,Return,Type of Bet,Wager
Hitlers_Art_Teacher,marseille,france,18/08/18,ligue 1,1.0,3.0,2018-08-18 00:34:26.261664,nimes,1.79,Lost,2018-08-18 00:15:08.000000,2,0.0,1X2,3.0
Hitlers_Art_Teacher,scunthorpe,england,18/08/18,league one,0.0,3.0,2018-08-18 00:34:26.267336,sunderland,1.93,Win,2018-08-18 00:15:08.000000,1,2.895,1X2,1.5
coolcoconut123,roasso kumamoto,japan,19/08/18,j2-league,2.0,0.0,2018-08-18 22:34:21.811368,gifu,2.05,Lost,2018-08-18 21:47:54,btts & over 2.5,0.0,Over,2.0
coolcoconut123,shanghai shenhua,china,19/08/18,super league,1.0,4.0,2018-08-18 22:34:21.819909,hebei cffc,1.5,Win,2018-08-18 21:47:54,btts yes,3.0,BTTS,2.0
coolcoconut123,varberg,sweden,19/08/18,superettan,2.0,0.0,2018-08-18 22:34:21.826491,gais,1.8,Lost,2018-08-18 21:47:54,over 2.5,0.0,Over,2.0
coolcoconut123,aik,sweden,19/08/18,allsvenskan,2.0,0.0,2018-08-18 22:34:21.832037,brommapojkarna,1.57,Win,2018-08-18 21:47:54,over 1.5 a,3.14,Over Team,2.0
coolcoconut123,honka,finland,19/08/18,veikkausliiga,0.0,0.0,2018-08-18 22:34:21.837499,mariehamn,1.83,Lost,2018-08-18 21:47:54,over 1.5 a,0.0,Over Team,2.0
coolcoconut123,kr,iceland,19/08/18,rvalsdeild,,,2018-08-18 22:34:21.843317,ka,1.61,Push,2018-08-18 21:47:54,btts yes,2.0,,2.0
coolcoconut123,molde,norway,19/08/18,eliteserien,1.0,3.0,2018-08-18 22:34:21.848502,stabk,1.72,Lost,2018-08-18 21:47:54,over 1.5 a,0.0,Over Team,2.0
coolcoconut123,rosenborg,norway,19/08/18,eliteserien,2.0,0.0,2018-08-18 22:34:21.853728,kristiansund,1.72,Win,2018-08-18 21:47:54,over 1.5 a,3.44,Over Team,2.0
coolcoconut123,sarpsborg,norway,19/08/18,eliteserien,0.0,2.0,2018-08-18 22:34:21.858889,brann,1.75,Lost,2018-08-18 21:47:54,btts yes,0.0,BTTS,2.0
coolcoconut123,sandefjord,norway,19/08/18,eliteserien,1.0,1.0,2018-08-18 22:34:21.865090,ranheim,1.8,Lost,2018-08-18 21:47:54,over 1.5 h,0.0,Over Team,2.0
coolcoconut123,fh,iceland,19/08/18,rvalsdeild,,,2018-08-18 22:34:21.870671,fylkir,1.61,Push,2018-08-18 21:47:54,btts yes,2.0,,2.0
therealpyro,new york red bulls,usa,19/08/18,mls,2.0,2.0,2018-08-18 22:34:21.886682,vancouver whitecaps,2.2,Win,2018-08-18 21:38:16,over 1.5 h,2.2,Over Team,1.0
therealpyro,toronto fc,usa,19/08/18,mls,1.0,1.0,2018-08-18 22:34:21.892971,san jose earthquakes,1.99,Lost,2018-08-18 21:38:16,over 1.5 a,0.0,Over Team,1.0
poisonfoot,bischofswerdaer,germany,19/08/18,regionalliga nordost,1.0,1.0,2018-08-18 23:34:23.846479,berliner ak 07,3.6,Push,2018-08-18 23:12:26,dnb 2,0.28,DNB,0.28
therealpyro,norrkoping,sweden,19/08/18,allsvenskan,1.0,0.0,2018-08-19 05:34:29.399071,elfsborg,2.22,Win,2018-08-18 21:38:16,under 2.5,2.22,Under,1.0
therealpyro,honka,finland,19/08/18,veikkausliiga,0.0,0.0,2018-08-19 05:34:29.408768,mariehamn,1.77,Lost,2018-08-18 21:38:16,btts yes,0.0,BTTS,1.0
therealpyro,dusseldorf ii,germany,19/08/18,regionalliga west,3.0,1.0,2018-08-19 05:34:29.415017,b. monchengladbach ii,2.32,Lost,2018-08-18 21:38:16,under 2.5,0.0,Under,1.0
therealpyro,st etienne,france,19/08/18,ligue 1,1.0,1.0,2018-08-19 05:34:29.421210,strasbourg,2.3,Lost,2018-08-18 21:38:16,over 2.5,0.0,Over,1.0
therealpyro,kr reykjavik,iceland,19/08/18,pepsideild,1.0,0.0,2018-08-19 05:34:29.427009,ka akureyri,3.3,Lost,2018-08-18 21:38:16,1,0.0,1X2,1.0
therealpyro,sagan tosu,japan,19/08/18,j-league,0.0,3.0,2018-08-19 05:34:29.432786,nagoya,2.95,Win,2018-08-18 21:38:16,1,2.95,1X2,1.0
therealpyro,hacken,sweden,19/08/18,allsvenskan,2.0,0.0,2018-08-19 05:34:29.438650,sundsvall,3.42,Lost,2018-08-18 21:38:16,1,0.0,1X2,1.0
therealpyro,cska sofia,bulgaria,19/08/18,parva liga,0.0,1.0,2018-08-19 05:34:29.444473,ludogorets,4.42,Lost,2018-08-18 21:38:16,2,0.0,1X2,1.0
therealpyro,vitesse,netherlands,19/08/18,eredivisie,1.0,1.0,2018-08-19 05:34:29.450203,heerenveen,2.25,Lost,2018-08-18 21:38:16,over 1.5 a,0.0,Over Team,1.0
