Author,AwayTeam,Country,Date,Division,FTAG,FTHG,Fetched at,HomeTeam,Odds,Outcome,Post Time,Prediction,Return,Type of Bet,Wager
poisonfoot,aalen,germany,19/10/18,3 liga,0,0,2018-10-19 10:34:40.601416,jena,1.93,Lost,2018-10-19 09:45:58.000000,over 2.5,0.0,Over,0.33
neonzzzzz,valmiera glass via,latvia,19/10/18,virsliga,0,3,2018-10-19 14:34:34.420344,rfs,1.61,Lost,2018-10-19 14:16:37,o3.5,0.0,Over,2.0
peruvianhope,river plate,argentina,19/10/18,superliga,0,1,2018-10-19 15:34:29.309660,colon santa fe,2.52,Lost,2018-10-19 15:24:01,2,0.0,1X2,1.0
