Author,AwayTeam,Country,Date,Division,Fetched at,HomeTeam,Odds,Outcome,Post Time,Prediction,Return,Wager
coolcoconut123,atalanta,italy,20/01/19,serie a,2019-01-20 02:34:19.133937,frosinone,1.8,,2019-01-20 02:04:04.000000,btts yes,,2.0
coolcoconut123,heerenveen,netherlands,20/01/19,eredivisie,2019-01-20 02:34:19.143310,ajax,2.75,,2019-01-20 02:04:04.000000,over 1.5 h in each half,,2.0
coolcoconut123,wolfsburg,germany,20/01/19,bundesliga,2019-01-20 02:34:19.150138,schalke 04,3.5,,2019-01-20 02:04:04.000000,over 1.5 a,,2.0
coolcoconut123,albacete,spain,20/01/19,segunda division,2019-01-20 02:34:19.156915,deportivo,4.33,,2019-01-20 02:04:04.000000,dnb 2,,2.0
blackandrose56,,england,20/01/19,premier league,2019-01-20 05:34:14.546741,fulham,1.72,,2019-01-20 05:15:51,2,,2.0
blackandrose56,,,20/01/19,,2019-01-20 05:34:14.551429,,,,2019-01-20 05:15:51,None,,
blackandrose56,,germany,20/01/19,bundesliga,2019-01-20 05:34:14.555484,nurnberg,2.15,,2019-01-20 05:15:51,2,,2.0
blackandrose56,montpellier,france,20/01/19,ligue 1,2019-01-20 05:34:14.562635,,2.05,,2019-01-20 05:15:51,1,,3.0
blackandrose56,,play with your own risk and bet safe,20/01/19,ods from bet365,2019-01-20 05:34:14.566140,,,,2019-01-20 05:15:51,None,,
