Author,AwayTeam,Country,Date,Division,FTAG,FTHG,Fetched at,HomeTeam,Odds,Outcome,Post Time,Prediction,Return,Type of Bet,Wager
Yid,wolverhampton,england,20/04/18,championship,,,2018-04-20 08:34:18.310664,bolton,2.1,Push,2018-04-20 08:28:18.000000,2,5.0,,5.0
Yid,plymouth,england,20/04/18,league one,0.0,2.0,2018-04-20 08:34:18.316801,northampton,2.0,Lost,2018-04-20 08:28:18.000000,2,0.0,1X2,5.0
tropianhs,crystal palace,england,21/04/18,premier league,0.0,0.0,2018-04-20 18:34:18.379057,watford,2.54,Lost,2018-04-20 18:21:04,2,0.0,1X2,8.0
tropianhs,bayer leverkusen,germany,21/04/18,bundesliga,0.0,4.0,2018-04-20 18:34:18.394191,borussia dortmund,3.03,Lost,2018-04-20 18:21:04,2,0.0,1X2,8.0
tropianhs,freiburg,germany,21/04/18,bundesliga,0.0,1.0,2018-04-20 18:34:18.406092,hamburg,2.05,Win,2018-04-20 18:21:04,1,16.4,1X2,8.0
tropianhs,werder bremen,germany,21/04/18,bundesliga,0.0,2.0,2018-04-20 18:34:18.414135,stuttgart,3.42,Lost,2018-04-20 18:21:04,x,0.0,1X2,8.0
tropianhs,strasbourg,france,21/04/18,ligue 1,1.0,3.0,2018-04-20 18:34:18.422302,amiens,3.25,Lost,2018-04-20 18:21:04,x,0.0,1X2,8.0
tropianhs,,*1=home team,21/04/18,x=draw,,,2018-04-20 18:34:18.427674,2=away team,,Push,2018-04-20 18:21:04,None,,,
coolcoconut123,norwich city,england,21/04/18,championship,,,2018-04-20 22:34:21.486314,preston north end,1.72,Push,2018-04-20 21:37:26,btts yes,2.0,,2.0
coolcoconut123,horsens,denmark,21/04/18,superligaen,,,2018-04-20 22:34:21.495929,kbenhavn,1.95,Push,2018-04-20 21:37:26,btts yes,2.0,,2.0
coolcoconut123,monaco,france,21/04/18,ligue 1,1.0,3.0,2018-04-20 22:34:21.500272,guingamp,2.75,Win,2018-04-20 21:37:26,2 & over 2.5,5.5,Over,2.0
ExperientialAra,bayern mnchen,germany,21/04/18,bundesliga,3.0,0.0,2018-04-20 22:34:21.512818,hannover,1.55,Win,2018-04-20 22:23:47,2,7.75,1X2,5.0
ExperientialAra,balcatta,australia,21/04/18,npl western,1.0,0.0,2018-04-20 22:34:21.518577,perth sc,1.4,Lost,2018-04-20 22:23:47,1,0.0,1X2,5.0
ExperientialAra,ludogorets,bulgaria,21/04/18,parva liga,4.0,2.0,2018-04-20 22:34:21.522904,botev plovdiv,1.3,Win,2018-04-20 22:23:47,2,2.6,1X2,2.0
ExperientialAra,paphos,cyprus,21/04/18,first division,1.0,0.0,2018-04-20 22:34:21.527161,ermis,1.35,Lost,2018-04-20 22:23:47,1x,0.0,DC,2.0
ExperientialAra,unterhaching,germany,21/04/18,3. liga,0.0,3.0,2018-04-20 22:34:21.531620,paderborn,1.3,Win,2018-04-20 22:23:47,1,2.6,1X2,2.0
ExperientialAra,augsburg 2,germany,21/04/18,regionalliga bayern,,,2018-04-20 22:34:21.538638,1860 mnchen,1.31,Push,2018-04-20 22:23:47,1,2.0,,2.0
ExperientialAra,tallina kalev,estonia,21/04/18,competition,2.0,2.0,2018-04-20 22:34:21.547231,narva,1.5,Lost,2018-04-20 22:23:47,1,0.0,1X2,2.0
ExperientialAra,stabaek,norway,21/04/18,eliteserien,0.0,3.0,2018-04-20 22:34:21.555495,brann,1.63,Win,2018-04-20 22:23:47,1,3.26,1X2,2.0
ExperientialAra,u. san martin,peru,21/04/18,divion,1.0,4.0,2018-04-20 22:34:21.564109,sporting cristal,1.4,Win,2018-04-20 22:23:47,1,2.8,1X2,2.0
ExperientialAra,muangthong,thailand,21/04/18,premier league,1.0,1.0,2018-04-20 22:34:21.572775,chonburi,1.65,Lost,2018-04-20 22:23:47,2,0.0,1X2,2.0
ExperientialAra,jihlava,czech republic,21/04/18,1.liga,1.0,1.0,2018-04-20 22:34:21.577789,bohemians 1905,1.72,Lost,2018-04-20 22:23:47,1,0.0,1X2,2.0
ExperientialAra,chicago fire,usa,21/04/18,mls,2.0,1.0,2018-04-20 22:34:21.582167,new york red bulls,1.5,Lost,2018-04-20 22:23:47,1,0.0,1X2,2.0
ExperientialAra,monaco,france,21/04/18,ligue 1,1.0,3.0,2018-04-20 22:34:21.587024,guingamp,1.62,Push,2018-04-20 22:23:47,btts,2.0,BTTS,2.0
Maggi96,berlin,germany,21/04/18,1.bundesliga,3.0,0.0,2018-04-21 02:34:15.015268,frankfurt,1.95,Lost,2018-04-21 01:58:53,1,0.0,1X2,3.0
Maggi96,hoffenheim,germany,21/04/18,1.bundesliga,5.0,2.0,2018-04-21 02:34:15.020925,leipzig,2.1,Win,2018-04-21 01:58:53,2 o1.5,6.300000000000001,Over,3.0
Maggi96,leverkusen,germany,21/04/18,1.bundesliga,0.0,4.0,2018-04-21 02:34:15.025598,dortmund,1.5,Lost,2018-04-21 01:58:53,btts yes,0.0,BTTS,4.0
Maggi96,bayern,germany,21/04/18,1.bundesliga,3.0,0.0,2018-04-21 02:34:15.031077,hannover,1.75,Win,2018-04-21 01:58:53,ah 2 -1.0,8.75,AH,5.0
Maggi96,bayern,germany,21/04/18,1.bundesliga,3.0,0.0,2018-04-21 02:34:15.035491,hannover,7.0,Push,2018-04-21 01:58:53,ah 2 -3.0,0.5,AH,0.5
Maggi96,freiburg,germany,21/04/18,1.bundesliga,0.0,1.0,2018-04-21 02:34:15.039985,hamburg,1.45,Win,2018-04-21 01:58:53,dnb 1,2.9,DNB,2.0
Maggi96,bremen,germany,21/04/18,1.bundesliga,0.0,2.0,2018-04-21 02:34:15.044473,stuttgart,2.1,Lost,2018-04-21 01:58:53,dnb 2,0.0,DNB,3.0
mart9441,chicago fire,usa,21/04/18,mls,2.0,1.0,2018-04-21 09:34:16.211914,new york red bulls,1.81,Lost,2018-04-21 08:58:39,ah 1 -1,0.0,AH,1.0
mart9441,caen,france,21/04/18,ligue 1,1.0,1.0,2018-04-21 09:34:16.217845,metz,2.02,Lost,2018-04-21 08:58:39,over 2.5,0.0,Over,1.0
mart9441,bayer leverkusen,germany,21/04/18,bundesliga,0.0,4.0,2018-04-21 09:34:16.222287,dortmund,2.25,Lost,2018-04-21 08:58:39,ah 2 +0,0.0,AH,1.0
Maggi96,hoffenheim,germany,21/04/18,1.bundesliga,5.0,2.0,2018-04-21 11:34:16.382337,leipzig,2.1,Win,2018-04-21 01:58:53,o1.5 a,6.300000000000001,Over Team,3.0
Naijce,hertha berlin,germany,21/04/18,bundesliga,3.0,0.0,2018-04-21 12:34:18.840696,eintracht frankfurt,1.98,Lost,2018-04-21 12:17:43,1,0.0,1X2,2.5
Naijce,deportes temuco,chile,21/04/18,primera division,0.0,2.0,2018-04-21 12:34:18.850826,colo colo,1.52,Win,2018-04-21 12:17:43,ah 1 -1,3.8,AH,2.5
Naijce,u. catolica,ecuador,21/04/18,serie a,1.0,1.0,2018-04-21 12:34:18.856745,guayaquil city,2.7,Lost,2018-04-21 12:17:43,1,0.0,1X2,2.0
Naijce,carpi,italy,21/04/18,serie b,,,2018-04-21 13:34:18.231511,parma calcio,1.65,Push,2018-04-21 12:17:43,1,2.0,,2.0
Naijce,avellino,italy,21/04/18,serie b,0.0,3.0,2018-04-21 13:34:18.241720,palermo,1.57,Win,2018-04-21 12:17:43,1,3.14,1X2,2.0
