Author,AwayTeam,Country,Date,Division,FTAG,FTHG,Fetched at,HomeTeam,Odds,Outcome,Post Time,Prediction,Return,Type of Bet,Wager
coolcoconut123,girona,spain,20/12/17,la liga,1,4,2017-12-20 00:00:09.375208,eibar,1.9,Win,2017-12-19 22:32:06.000000,btts yes,3.8,BTTS,2.0
coolcoconut123,sevilla ii,spain,20/12/17,segunda division,0,3,2017-12-20 00:00:09.396523,numancia,1.7,Win,2017-12-19 22:32:06.000000,1,3.4,1X2,2.0
coolcoconut123,sporting charleroi,belgium,20/12/17,first division a,0,1,2017-12-20 00:00:09.412960,gent,2.05,Lost,2017-12-19 22:32:06.000000,btts yes,0.0,BTTS,2.0
coolcoconut123,cf cadiz,spain,20/12/17,segunda division,1,1,2017-12-20 00:00:09.429414,tenerife,2.5,Push,2017-12-19 22:32:06.000000,dnb 2,2.0,DNB,2.0
coolcoconut123,malaga,spain,20/12/17,la liga,0,1,2017-12-20 00:00:09.445886,deportivo alaves,1.28,Win,2017-12-19 22:32:06.000000,over 0.5 h,2.56,Over Team,2.0
Tronck,pescara,italy,21/12/17,serie b,1,1,2017-12-21 10:30:05.707201,ascoli,1.6,Lost,2017-12-21 10:04:42,over 2.5,0.0,Over,1.0
Tronck,apollon limassol,cyprus,21/12/17,division one,6,0,2017-12-21 10:30:05.727782,ermis aradippou,1.28,Win,2017-12-21 10:04:42,2,1.28,1X2,1.0
Tronck,heracles,holland,21/12/17,knvb beker,1,3,2017-12-21 10:30:05.743133,feyenoord,1.36,Win,2017-12-21 10:04:42,over 2.5,1.36,Over,1.0
js904,panserraikos,greece,21/12/17,football league,0,2,2017-12-21 11:30:06.557656,chania kissamikos,1.8,Lost,2017-12-21 11:23:17,ah a +1,0.0,AH,0.25
js904,karaiskakis,greece,21/12/17,football league,1,1,2017-12-21 15:00:06.040549,kallithea,1.78,Push,2017-12-21 11:23:17,ah h 0,0.25,AH,0.25
js904,doxa,cyprus,21/12/17,first division,1,0,2017-12-21 15:00:06.056858,nea salamis,1.79,Win,2017-12-21 11:23:17,ah a 0,0.4475,AH,0.25
js904,braga b,portugal,21/12/17,segunda liga,0,1,2017-12-21 16:00:06.826855,benfica b,1.88,Win,2017-12-21 11:23:17,h,0.47,1X2,0.25
js904,zaragoza b,spain,21/12/17,segunda division b - group 3,1,1,2017-12-21 16:00:06.843404,valencia b,1.72,Win,2017-12-21 11:23:17,ah a +1,0.43,AH,0.25
