Author,AwayTeam,Country,Date,Division,FTAG,FTHG,Fetched at,HomeTeam,Odds,Outcome,Post Time,Prediction,Return,Type of Bet,Wager
HJGP,buxoro,uzbekistan,22/09/17,professional football league,1.0,1.0,2017-09-21 18:30:09.401450,mashal muborak,2.18,Lost,2017-09-21 18:06:17.000000,1,0.0,1X2,1.0
trksab,austria lustena,austria,22/09/17,erste liga,1.0,1.0,2017-09-22 06:30:05.922202,sc wiener neustadt,2.1,Lost,2017-09-22 06:22:27,1,0.0,1X2,1.0
trksab,al wahda scc,uae,22/09/17,pro league,2.0,1.0,2017-09-22 06:30:05.943656,al-nasr sc,2.25,Lost,2017-09-22 06:22:27,1,0.0,1X2,0.75
trksab,tours,france,22/09/17,ligue 2,1.0,1.0,2017-09-22 06:30:05.960107,orleans,2.0,Lost,2017-09-22 06:22:27,1,0.0,1X2,0.75
trksab,al-jazeera amman,jordan,22/09/17,pro league,4.0,1.0,2017-09-22 06:30:05.976543,al-hussein sc,3.2,Lost,2017-09-22 06:22:27,x,0.0,1X2,0.75
trksab,chrobry glogow,poland,22/09/17,i liga,2.0,2.0,2017-09-22 06:30:05.993377,gks katowice,3.2,Lost,2017-09-22 06:22:27,2,0.0,1X2,0.75
trksab,auxerre,france,22/09/17,ligue 2,2.0,0.0,2017-09-22 06:30:06.009907,valenciennes,2.6,Lost,2017-09-22 06:22:27,1,0.0,1X2,0.5
trksab,swindon town,england,22/09/17,league two,2.0,0.0,2017-09-22 06:30:06.026384,forest green,2.4,Win,2017-09-22 06:22:27,2,1.7999999999999998,1X2,0.75
trksab,warta poznan,poland,22/09/17,ii liga,3.0,0.0,2017-09-22 06:30:06.042924,znicz pruszko,2.4,Win,2017-09-22 06:22:27,2,1.7999999999999998,1X2,0.75
trksab,fus rabat,world,22/09/17,africa caf,,,2017-09-22 06:30:06.059461,cs sfaxien,1.61,Push,2017-09-22 06:22:27,1,0.25,,0.25
trksab,niort,france,22/09/17,ligue 2,5.0,1.0,2017-09-22 06:30:06.075948,nimes,1.61,Lost,2017-09-22 06:22:27,1,0.0,1X2,0.25
trksab,ps tni,indonesia,22/09/17,liga 1,0.0,1.0,2017-09-22 06:30:06.092501,persela lamongan,1.72,Win,2017-09-22 06:22:27,1,0.43,1X2,0.25
Trollatopoulous,guangzhou evergrande,china,22/09/17,super league,2.0,2.0,2017-09-22 11:30:06.089783,chongqing lifan,1.47,Lost,2017-09-22 11:06:27,2,0.0,1X2,7.5
WaRAmBusHeR,bw linz,austria,22/09/17,erste liga,0.0,3.0,2017-09-22 12:00:06.363736,liefering,2.37,Lost,2017-09-22 11:44:59,dc x2,0.0,DC,1.0
WaRAmBusHeR,geestemunde,germany,22/09/17,oberliga bremen,1.0,2.0,2017-09-22 12:00:06.385427,vatan bremen,1.68,Win,2017-09-22 11:44:59,dc 1x,1.68,DC,1.0
WaRAmBusHeR,angers,france,22/09/17,ligue 1,2.0,2.0,2017-09-22 12:00:06.402024,nice,3.5,Win,2017-09-22 11:44:59,x,3.5,1X2,1.0
WaRAmBusHeR,sevilla fc b,spain,22/09/17,laliga2,0.0,3.0,2017-09-22 12:00:06.418732,almeria,1.87,Win,2017-09-22 11:44:59,1,1.87,1X2,1.0
Trollatopoulous,voluntari,romania,22/09/17,liga 1,1.0,1.0,2017-09-22 16:00:05.512724,cs u. craiova,1.75,Win,2017-09-22 11:06:27,under 2.5,8.75,Under,5.0
Trollatopoulous,monaco,france,22/09/17,ligue 1,4.0,0.0,2017-09-22 16:00:05.533038,lille,1.71,Win,2017-09-22 11:06:27,2,3.42,1X2,2.0
Trollatopoulous,niort,france,22/09/17,ligue 2,5.0,1.0,2017-09-22 16:00:05.548486,nimes,1.51,Lost,2017-09-22 11:06:27,1,0.0,1X2,5.0
Trollatopoulous,wolfsburg,germany,22/09/17,bundesliga,2.0,2.0,2017-09-22 16:00:05.563904,bayern munich,1.4,Win,2017-09-22 11:06:27,under 4.5,7.0,Under,5.0
Trollatopoulous,portimonense,portugal,22/09/17,primeira liga,2.0,5.0,2017-09-22 16:00:05.579450,fc porto,1.25,Lost,2017-09-22 11:06:27,under 4.5,0.0,Under,5.0
RedBullRyan,mk dons,england,23/09/17,league one,2.0,0.0,2017-09-22 18:30:06.183963,wimbledon,2.4,Lost,2017-09-22 18:05:07,1,0.0,1X2,1.0
RedBullRyan,swindon,england,23/09/17,league two,2.0,0.0,2017-09-22 18:30:06.204147,forest green,2.2,Win,2017-09-22 18:05:07,2,2.2,1X2,1.0
