Author,AwayTeam,Country,Date,Division,FTAG,FTHG,Fetched at,HomeTeam,Odds,Outcome,Post Time,Prediction,Return,Type of Bet,Wager
poisonfoot,ponte preta,brazil,22/08/18,serie b,0,1,2018-08-21 16:34:34.041745,londrina,2.32,Lost,2018-08-21 16:21:37.000000,ah 2 -0.25,0.0,AH,0.75
poisonfoot,freiburg ii,germany,22/08/18,regionalliga sudwest,2,1,2018-08-22 03:34:17.999375,stadtallendorf,1.95,Lost,2018-08-22 03:00:44,ah 1 0.25,0.0,AH,1.0
iamspok,birmingham,england,22/08/18,championship,0,1,2018-08-22 08:34:25.512813,bolton,1.9,Win,2018-08-22 08:25:37,dnb1,5.7,DNB,3.0
iamspok,reading,england,22/08/18,championship,2,2,2018-08-22 08:34:25.517957,blackburn,1.72,Lost,2018-08-22 08:25:37,1,0.0,1X2,2.0
iamspok,sunderland,england,22/08/18,league one,4,1,2018-08-22 08:34:25.521815,gillingham,1.53,Win,2018-08-22 08:25:37,dnb2,3.06,DNB,2.0
Hitlers_Art_Teacher,fleetwood,england,22/08/18,league one,5,0,2018-08-22 11:34:20.207513,scunthorpe,2.35,Win,2018-08-22 10:48:18,dnb 2,2.35,DNB,1.0
Hitlers_Art_Teacher,sunderland,england,22/08/18,league one,4,1,2018-08-22 11:34:20.212886,gillingham,1.85,Win,2018-08-22 10:48:18,btts yes,1.85,BTTS,1.0
