Author,AwayTeam,Country,Date,Division,FTAG,FTHG,Fetched at,HomeTeam,Odds,Outcome,Post Time,Prediction,Return,Type of Bet,Wager
eagles490,blackburn,england,21/09/18,championship,3.0,2.0,2018-09-25 23:34:24.185930,stoke,2.0,Lost,2018-09-21 07:47:30,1,0.0,1X2,1.0
eagles490,rochdale,england,21/09/18,league one,1.0,4.0,2018-09-25 23:34:24.195623,sunderland,1.87,Win,2018-09-21 07:47:30,1,2.1505,1X2,1.15
eagles490,cheltenham,england,21/09/18,championship,1.0,3.0,2018-09-25 23:34:24.203063,exeter,2.0,Win,2018-09-21 07:47:30,1,2.0,1X2,1.0
coolcoconut123,shanghai shenhua,china,22/09/18,super league,1.0,2.0,2018-09-25 23:34:24.222125,dalian yifang,1.72,Win,2018-09-21 21:49:12,over 1.5 h,3.44,Over Team,2.0
coolcoconut123,shanghai shenhua,china,22/09/18,super league,1.0,2.0,2018-09-25 23:34:24.232006,dalian yifang,1.9,Win,2018-09-21 21:49:12,btts & over 2.5,3.8,Over,2.0
coolcoconut123,oita trinita,japan,22/09/18,j2-league,,,2018-09-25 23:34:24.241884,renofa yamaguchi,1.8,Push,2018-09-21 21:49:12,over 1.5 a,2.0,,2.0
coolcoconut123,guangzhou evergrande,china,22/09/18,super league,3.0,2.0,2018-09-25 23:34:24.250182,jiangsu suning,1.66,Win,2018-09-21 21:49:12,btts yes,3.32,BTTS,2.0
coolcoconut123,honka,finland,22/09/18,veikkausliiga,1.0,1.0,2018-09-25 23:34:24.258453,kups,1.7,Win,2018-09-21 21:49:12,btts yes,3.4,BTTS,2.0
coolcoconut123,gais,sweden,22/09/18,superettan,1.0,1.0,2018-09-25 23:34:24.265697,degerfors,1.57,Win,2018-09-21 21:49:12,btts yes,3.14,BTTS,2.0
coolcoconut123,gais,sweden,22/09/18,superettan,1.0,1.0,2018-09-25 23:34:24.270515,degerfors,1.7,Lost,2018-09-21 21:49:12,over 2.5,0.0,Over,2.0
coolcoconut123,stersunds fk,sweden,22/09/18,allsvenskan,1.0,0.0,2018-09-25 23:34:24.276149,sirius,1.57,Lost,2018-09-21 21:49:12,btts yes,0.0,BTTS,2.0
coolcoconut123,stersunds fk,sweden,22/09/18,allsvenskan,1.0,0.0,2018-09-25 23:34:24.280985,sirius,1.83,Lost,2018-09-21 21:49:12,over 1.5 a,0.0,Over Team,2.0
coolcoconut123,norrkping,sweden,22/09/18,allsvenskan,2.0,0.0,2018-09-25 23:34:24.285461,dalkurd,1.66,Lost,2018-09-21 21:49:12,btts yes,0.0,BTTS,2.0
Hitlers_Art_Teacher,carlisle,england,21/09/18,league two,1.0,0.0,2018-09-25 23:34:24.299734,bury,1.9,Lost,2018-09-21 12:45:54,1,0.0,1X2,3.0
Hitlers_Art_Teacher,millwall,england,21/09/18,championship,0.0,2.0,2018-09-25 23:34:24.305524,west brom,2.2,Win,2018-09-21 12:45:54,1 & over 1.5,4.4,Over,2.0
Hitlers_Art_Teacher,newcastle,england,21/09/18,premier league,0.0,0.0,2018-09-25 23:34:24.310974,crystal palace,1.88,Lost,2018-09-21 12:45:54,btts yes,0.0,BTTS,1.5
Hitlers_Art_Teacher,luton,england,21/09/18,league one,0.0,0.0,2018-09-25 23:34:24.317456,blackpool,1.79,Lost,2018-09-21 12:45:54,btts yes,0.0,BTTS,1.0
Hitlers_Art_Teacher,coventry,england,21/09/18,league one,1.0,3.0,2018-09-25 23:34:24.324859,bristol rovers,3.52,Lost,2018-09-21 12:45:54,x,0.0,1X2,1.0
poisonfoot,extremadura ud,spain,21/09/18,laliga2,4.0,1.0,2018-09-25 23:34:24.352101,rayo majadahonda,2.13,Win,2018-09-21 13:22:43,ah 2 0.25,1.065,AH,0.5
tropianhs,nantes,france,22/09/18,ligue1,1.0,2.0,2018-09-25 23:34:24.369297,lille,2.61,Win,2018-09-21 19:21:31,1,26.099999999999998,1X2,10.0
tropianhs,willem ii,netherlands,22/09/18,eredivisie,4.0,4.0,2018-09-25 23:34:24.375605,for sittard,3.5,Win,2018-09-21 19:21:31,x,35.0,1X2,10.0
tropianhs,hannover,germany,22/09/18,bundesliga,0.0,2.0,2018-09-25 23:34:24.379801,nurnberg,3.37,Lost,2018-09-21 19:21:31,x,0.0,1X2,10.0
tropianhs,dortmund,germany,22/09/18,bundesliga,1.0,1.0,2018-09-25 23:34:24.384935,hoffenheim,3.73,Win,2018-09-21 19:21:31,x,37.3,1X2,10.0
tropianhs,m'gladbach,germany,22/09/18,bundesliga,2.0,4.0,2018-09-25 23:34:24.390299,hertha,3.39,Lost,2018-09-21 19:21:31,x,0.0,1X2,10.0
tropianhs,leganes,spain,22/09/18,liga,0.0,1.0,2018-09-25 23:34:24.395930,eibar,3.31,Lost,2018-09-21 19:21:31,x,0.0,1X2,10.0
tropianhs,valladolid,spain,22/09/18,liga,3.0,3.0,2018-09-25 23:34:24.402347,celta,3.65,Win,2018-09-21 19:21:31,x,36.5,1X2,10.0
tropianhs,ath madrid,spain,22/09/18,liga,2.0,0.0,2018-09-25 23:34:24.409262,getafe,3.35,Lost,2018-09-21 19:21:31,x,0.0,1X2,10.0
tropianhs,espanol,spain,22/09/18,liga,0.0,1.0,2018-09-25 23:34:24.416096,real madrid,17.57,Lost,2018-09-21 19:21:31,2,0.0,1X2,10.0
tropianhs,cagliari,italy,22/09/18,seriea,0.0,2.0,2018-09-25 23:34:24.422947,parma,3.29,Lost,2018-09-21 19:21:31,x,0.0,1X2,10.0
tropianhs,belenenses,portugal,22/09/18,primeiraliga,0.0,0.0,2018-09-25 23:34:24.429641,maritimo,3.33,Win,2018-09-21 19:21:31,x,33.3,1X2,10.0
Jironasaurus,wolves,england,22/09/18,epl,,,2018-09-25 23:34:24.448679,man utd,1.85,Push,2018-09-22 13:10:21,ah a +1,100.0,,100.0
Jironasaurus,spurs,england,23/09/18,epl,,,2018-09-25 23:34:24.463520,brighton,2.15,Push,2018-09-22 16:05:33,ah a -1,100.0,,100.0
