Author,AwayTeam,Country,Date,Division,FTAG,FTHG,Fetched at,HomeTeam,Odds,Outcome,Post Time,Prediction,Return,Type of Bet,Wager
Yid,wimbledon,england,23/03/18,league one,0,1,2018-03-23 10:34:24.898855,shrewsbury,1.9,Win,2018-03-23 09:50:48.000000,1,9.5,1X2,5.0
Yid,grimsby,england,23/03/18,league two,0,4,2018-03-23 10:34:24.904693,coventry,1.8,Win,2018-03-23 09:50:48.000000,1,9.0,1X2,5.0
Yid,cambridge,england,23/03/18,league two,1,1,2018-03-23 10:34:24.909144,carlisle,2.2,Lost,2018-03-23 09:50:48.000000,1,0.0,1X2,5.0
Yid,port vale,england,23/03/18,league two,0,0,2018-03-23 10:34:24.913736,wycombe,1.95,Lost,2018-03-23 09:50:48.000000,1,0.0,1X2,5.0
Yid,cultural leonesa,spain,23/03/18,segunda liga,0,0,2018-03-23 20:34:13.001479,albacete,1.83,Lost,2018-03-23 09:50:48,1,0.0,1X2,5.0
Yid,real oviedo,spain,23/03/18,segunda liga,1,1,2018-03-23 20:34:13.006546,crdoba,2.25,Lost,2018-03-23 09:50:48,1,0.0,1X2,5.0
therealpyro,ingolstadt ii,germany,24/03/18,regionalliga bayern,2,1,2018-03-24 09:34:13.725899,illertissen,3.41,Lost,2018-03-24 09:07:59,1,0.0,1X2,1.0
therealpyro,jena,germany,24/03/18,3. liga,0,0,2018-03-24 09:34:13.731695,hansa rostock,2.11,Lost,2018-03-24 09:07:59,1,0.0,1X2,1.5
therealpyro,westfalia rhynern,germany,24/03/18,regionalliga west,0,1,2018-03-24 09:34:13.736098,wegberg-beeck,1.7,Lost,2018-03-24 09:07:59,over 2.5,0.0,Over,1.5
therealpyro,stutt. kickers,germany,24/03/18,regionalliga sudwest,1,0,2018-03-24 09:34:13.740438,tsv steinbach,1.8,Lost,2018-03-24 09:07:59,over 2.5,0.0,Over,1.5
therealpyro,hamburger sv ii,germany,24/03/18,regionalliga north,2,0,2018-03-24 09:34:13.744762,lubeck,3.2,Lost,2018-03-24 09:07:59,1,0.0,1X2,1.0
therealpyro,red star,france,24/03/18,national,1,0,2018-03-24 09:34:13.749162,concarneau,2.97,Lost,2018-03-24 09:07:59,1,0.0,1X2,1.0
therealpyro,alloa,scotland,24/03/18,league one,3,1,2018-03-24 09:34:13.753680,albion rovers,3.1,Win,2018-03-24 09:07:59,over 3.5,3.1,Over,1.0
therealpyro,boreham wood,england,24/03/18,vanarama national league,0,2,2018-03-24 09:34:13.758042,aldershot,3.3,Lost,2018-03-24 09:07:59,2,0.0,1X2,1.0
therealpyro,billericay,england,24/03/18,bostik league,1,4,2018-03-24 09:34:13.762399,hendon,3.6,Win,2018-03-24 09:07:59,1,3.6,1X2,1.0
therealpyro,cambridge utd,england,24/03/18,league two,1,1,2018-03-24 09:34:13.766778,carlisle,2.23,Lost,2018-03-24 09:07:59,over 2.5,0.0,Over,1.0
therealpyro,grimsby town,england,24/03/18,league two,0,4,2018-03-24 09:34:13.771981,coventry,1.87,Win,2018-03-24 09:07:59,1,2.805,1X2,1.5
therealpyro,mansfield,england,24/03/18,league two,0,2,2018-03-24 09:34:13.779165,forest green,4.0,Win,2018-03-24 09:07:59,1,4.0,1X2,1.0
therealpyro,leatherhead,england,24/03/18,bostik league,1,2,2018-03-24 09:34:13.783595,harlow,4.75,Win,2018-03-24 09:07:59,1,4.75,1X2,1.0
therealpyro,boston,england,24/03/18,vanarama national league north,1,0,2018-03-24 09:34:13.788038,chorley,2.1,Lost,2018-03-24 09:07:59,1,0.0,1X2,1.5
therealpyro,afc wimbledon,england,24/03/18,league one,0,1,2018-03-24 09:34:13.792399,shrewsbury,2.0,Win,2018-03-24 09:07:59,1,3.0,1X2,1.5
therealpyro,kings lynn,england,24/03/18,southern premier league,1,0,2018-03-24 09:34:13.796772,redditch,3.4,Lost,2018-03-24 09:07:59,1,0.0,1X2,1.0
therealpyro,cowdenbeath,scotland,24/03/18,league two,2,2,2018-03-24 09:34:13.801159,stirling,1.96,Lost,2018-03-24 09:07:59,1,0.0,1X2,1.5
therealpyro,lincoln city,england,24/03/18,league two,0,0,2018-03-24 09:34:13.805503,morecambe,4.0,Lost,2018-03-24 09:07:59,1,0.0,1X2,1.0
therealpyro,lucchese,italy,24/03/18,serie c - group a,1,0,2018-03-24 09:34:13.809882,prato,2.94,Lost,2018-03-24 09:07:59,1,0.0,1X2,1.0
therealpyro,merida ad,spain,24/03/18,segunda division b - group 4,0,0,2018-03-24 09:34:13.814288,ecija,2.32,Lost,2018-03-24 09:07:59,1,0.0,1X2,1.0
therealpyro,servette geneve fc,switzerland,24/03/18,challenge league,2,0,2018-03-24 09:34:13.818716,wohlen,1.98,Lost,2018-03-24 09:07:59,btts yes,0.0,BTTS,1.0
therealpyro,r. union,spain,24/03/18,segunda division b - group 2,0,2,2018-03-24 09:34:13.823073,ud logrones,1.82,Win,2018-03-24 09:07:59,1,2.73,1X2,1.5
X_Underscore_X,cultural leonesa,spain,24/03/18,laliga 2,0,0,2018-03-24 11:34:10.344709,albacete,1.95,Lost,2018-03-24 11:09:47,1,0.0,1X2,1.0
X_Underscore_X,cambridge united,england,24/03/18,league two,1,1,2018-03-24 11:34:10.353795,carlisle,1.54,Push,2018-03-24 11:09:47,1 dnb,2.0,DNB,2.0
X_Underscore_X,grimsby town,england,24/03/18,league two,0,4,2018-03-24 11:34:10.358001,coventry,1.75,Win,2018-03-24 11:09:47,1,3.5,1X2,2.0
X_Underscore_X,port vale,england,24/03/18,league two,0,0,2018-03-24 11:34:10.362455,wycombewanders,1.81,Push,2018-03-24 11:09:47,btts,3.0,BTTS,3.0
