Author,AwayTeam,Country,Date,Division,FTAG,FTHG,Fetched at,HomeTeam,Odds,Outcome,Post Time,Prediction,Return,Type of Bet,Wager
coolcoconut123,buchbach,germany,24/07/18,regionalliga,0.0,1.0,2018-07-24 12:34:20.756095,nrnberg ii,1.76,Lost,2018-07-24 11:38:42.000000,over 3,0.0,Over,2
coolcoconut123,schalding-heining,germany,24/07/18,regionalliga,,,2018-07-24 12:34:20.768984,greuther frth ii,1.5,Push,2018-07-24 11:38:42.000000,btts yes,2,,2
coolcoconut123,bayreuth,germany,24/07/18,regionalliga,0.0,4.0,2018-07-24 12:34:20.782282,schweinfurt,1.7,Win,2018-07-24 11:38:42.000000,ah 1 -1.5,3.4,AH,2
coolcoconut123,pipinsried,germany,24/07/18,regionalliga,0.0,4.0,2018-07-24 12:34:20.795088,eichsttt,1.57,Win,2018-07-24 11:38:42.000000,over 2.5,3.14,Over,2
coolcoconut123,illertissen,germany,24/07/18,regionalliga,0.0,2.0,2018-07-24 12:34:20.807700,wacker burghausen,1.66,Lost,2018-07-24 11:38:42.000000,over 2.5,0.0,Over,2
