Author,AwayTeam,Country,Date,Division,FTAG,FTHG,Fetched at,HomeTeam,Odds,Outcome,Post Time,Prediction,Return,Type of Bet,Wager
coolcoconut123,agf,denmark,25/05/18,superligaen,,,2018-05-24 20:34:20.067294,fc kbenhavn,2.25,Push,2018-05-24 19:58:38.000000,btts & over 2.5,2.0,,2.0
coolcoconut123,agf,denmark,25/05/18,superligaen,,,2018-05-24 20:34:20.074859,fc kbenhavn,2.1,Push,2018-05-24 19:58:38.000000,ah 1 -1.5,2.0,,2.0
Maggi96,memmingen,germany,25/05/18,regionalliga play-offs,2.0,3.0,2018-05-24 23:34:21.918543,tsv rain/lech,1.66,Lost,2018-05-24 23:29:48,dc x2,0.0,DC,3.0
mart9441,memmingen,germany,25/05/18,regionalliga playoffs,2.0,3.0,2018-05-25 16:34:15.108298,rain/lech,2.17,Lost,2018-05-25 09:41:07,ah 2 +0,0.0,AH,0.5
