Author,AwayTeam,Country,Date,Division,FTAG,FTHG,Fetched at,HomeTeam,Odds,Outcome,Post Time,Prediction,Return,Type of Bet,Wager
ExperientialAra,jeonbuk,south korea,25/04/18,k league 1,2.0,0.0,2018-04-24 22:34:21.062578,gangwon,1.7,Win,2018-04-24 21:45:23.000000,2,8.5,1X2,5
ExperientialAra,borac,serbia,25/04/18,super liga,1.0,2.0,2018-04-24 22:34:21.088008,zemun,1.3,Win,2018-04-24 21:45:23.000000,1,6.5,1X2,5
ExperientialAra,east thurrock,england,25/04/18,vanarama,1.0,6.0,2018-04-24 22:34:21.095148,havant & w,1.5,Win,2018-04-24 21:45:23.000000,1,3.0,1X2,2
ExperientialAra,hereford,england,25/04/18,premier league south,3.0,0.0,2018-04-24 22:34:21.104207,hitchin,1.62,Win,2018-04-24 21:45:23.000000,2,8.100000000000001,1X2,5
ExperientialAra,la serena,chili,25/04/18,cup,,,2018-04-24 22:34:21.111901,lautaro,1.3,Push,2018-04-24 21:45:23.000000,2,5,,5
ExperientialAra,real madrid,europe,25/04/18,champions league,2.0,1.0,2018-04-24 22:34:21.130405,bayern mnchen,1.45,Push,2018-04-24 21:45:23.000000,btts,2.0,BTTS,2
Maggi96,real madrid,international,25/04/18,champions league,,,2018-04-25 01:34:17.271304,bayern,1.66,Push,2018-04-25 00:59:52,over 1.5 h,5,,5
Maggi96,real madrid,international,25/04/18,champions league,,,2018-04-25 01:34:17.288516,bayern,2.05,Push,2018-04-25 00:59:52,1,5,,5
therealpyro,gyeongnam,south korea,25/04/18,k league 1,1.0,3.0,2018-04-25 10:34:13.560773,suwon bluewings,5.15,Lost,2018-04-25 10:10:51,2,0.0,1X2,1
therealpyro,brann,norway,25/04/18,eliteserien,2.0,0.0,2018-04-25 10:34:13.566622,ranheim,3.55,Lost,2018-04-25 10:10:51,1,0.0,1X2,1
therealpyro,viktoria koln,germany,25/04/18,regionalliga west,3.0,1.0,2018-04-25 10:34:13.570970,dortmund ii,4.33,Lost,2018-04-25 10:10:51,1,0.0,1X2,1
ExperientialAra,la serena,chile,25/04/18,cup,0.0,1.0,2018-04-25 12:34:15.929684,lautaro,1.3,Lost,2018-04-24 21:45:23,2,0.0,1X2,5
