Author,AwayTeam,Country,Date,Division,FTAG,FTHG,Fetched at,HomeTeam,Odds,Outcome,Post Time,Prediction,Return,Type of Bet,Wager
coolcoconut123,sv wehen,germany,27/03/18,3. liga,4,1,2018-03-26 20:34:19.424280,chemnitzer fc,1.9,Win,2018-03-26 20:04:40.000000,over 1.5 a,3.8,Over Team,2
coolcoconut123,clyde,scotland,27/03/18,league two,3,0,2018-03-26 20:34:19.430850,cowdenbeath,2.1,Win,2018-03-26 20:04:40.000000,over 1.5 a,4.2,Over Team,2
coolcoconut123,spennymoor,england,27/03/18,national league north,2,1,2018-03-26 20:34:19.435615,harrogate town,2.25,Push,2018-03-26 20:04:40.000000,ht 1,2.0,,2
