Author,AwayTeam,Country,Date,Division,FTAG,FTHG,Fetched at,HomeTeam,Odds,Outcome,Post Time,Prediction,Return,Type of Bet,Wager
Maggi96,ranheim,norway,27/05/18,eliteserien,0.0,4.0,2018-05-26 23:34:18.710890,bod/glimt,1.85,Lost,2018-05-26 22:57:29.000000,dc x2,0.0,DC,3.0
Maggi96,ikf gteborg,sweden,27/05/18,allsvenskan,0.0,2.0,2018-05-26 23:34:18.719394,gif sundsvall,2.05,Lost,2018-05-26 22:57:29.000000,over 2.5,0.0,Over,3.0
Maggi96,rebro,sweden,27/05/18,allsvenskan,0.0,0.0,2018-05-26 23:34:18.726354,brommapojkarna,2.2,Lost,2018-05-26 22:57:29.000000,over 1.5 a,0.0,Over Team,3.0
Maggi96,grindavik,iceland,27/05/18,urvalsdeild,1.0,1.0,2018-05-26 23:34:18.732752,stjarnan,2.13,Lost,2018-05-26 22:57:29.000000,over 3.0,0.0,Over,3.0
Maggi96,saarbrcken,germany,27/05/18,regionalliga play-offs,,,2018-05-26 23:34:18.736801,1860 mnchen,1.95,Push,2018-05-26 22:57:29.000000,1,3.0,,3.0
Maggi96,shrewsbury,england,27/05/18,league 1,1.0,2.0,2018-05-26 23:34:18.740815,rotherham united,2.3,Lost,2018-05-26 22:57:29.000000,dnb 2,0.0,DNB,3.0
coolcoconut123,hammarby,sweden,27/05/18,allsvenskan,1.0,1.0,2018-05-26 23:34:18.753745,kalmar,2.0,Lost,2018-05-26 23:21:54.000000,btts & over 2.5,0.0,Over,2.0
coolcoconut123,djurgrden,sweden,27/05/18,allsvenskan,5.0,1.0,2018-05-26 23:34:18.775156,ik sirius,2.15,Lost,2018-05-26 23:21:54.000000,1x,0.0,DC,2.0
coolcoconut123,djurgrden,sweden,27/05/18,allsvenskan,5.0,1.0,2018-05-26 23:34:18.785452,ik sirius,1.95,Win,2018-05-26 23:21:54.000000,over 2.5,3.9,Over,2.0
coolcoconut123,trelleborg ff,sweden,27/05/18,allsvenskan,1.0,2.0,2018-05-26 23:34:18.802040,if elfsborg,2.62,Lost,2018-05-26 23:21:54.000000,x2,0.0,DC,2.0
coolcoconut123,rebro sk,sweden,27/05/18,allsvenskan,0.0,0.0,2018-05-26 23:34:18.818575,if brommapojkarna,2.1,Lost,2018-05-26 23:21:54.000000,2,0.0,1X2,2.0
coolcoconut123,rebro sk,sweden,27/05/18,allsvenskan,0.0,0.0,2018-05-26 23:34:18.827383,if brommapojkarna,2.3,Lost,2018-05-26 23:21:54.000000,btts & over 2.5,0.0,Over,2.0
coolcoconut123,ranheim,norway,27/05/18,eliteserien,0.0,4.0,2018-05-26 23:34:18.844429,bod/glimt,3.6,Lost,2018-05-26 23:22:38.000000,2,0.0,1X2,2.0
coolcoconut123,ranheim,norway,27/05/18,eliteserien,0.0,4.0,2018-05-26 23:34:18.849831,bod/glimt,2.62,Lost,2018-05-26 23:22:38.000000,over 1.5 a,0.0,Over Team,2.0
coolcoconut123,brann,norway,27/05/18,eliteserien,2.0,1.0,2018-05-26 23:34:18.860010,rosenborg,2.1,Win,2018-05-26 23:22:38.000000,x2,4.2,DC,2.0
coolcoconut123,brann,norway,27/05/18,eliteserien,2.0,1.0,2018-05-26 23:34:18.865835,rosenborg,1.95,Win,2018-05-26 23:22:38.000000,btts yes,3.9,BTTS,2.0
Nyrociel,ranheim,norway,27/05/18,eliteserien,0.0,4.0,2018-05-27 10:34:14.124062,bodo-glimt,1.9,Lost,2018-05-27 09:56:02,2x,0.0,DC,1.0
Nyrociel,hamkam,norway,27/05/18,obos-ligaen,2.0,1.0,2018-05-27 10:34:14.129438,aalesunds,2.15,Push,2018-05-27 09:56:02,1(-1),1.5,,1.5
Nyrociel,ac ajaccio,france,27/05/18,play-offs,0.0,1.0,2018-05-27 10:34:14.133477,toulouse,2.0,Push,2018-05-27 09:56:02,1(-0.75),2.0,,2.0
