Author,AwayTeam,Country,Date,Division,FTAG,FTHG,Fetched at,HomeTeam,Odds,Outcome,Post Time,Prediction,Return,Type of Bet,Wager
betstolose,atalanta,italy,27/08/18,serie a,3.0,3.0,2018-08-26 17:34:22.605376,as roma,1.9,Win,2018-08-26 17:15:15.000000,btts yes,1.9,BTTS,1
coolcoconut123,ifk gteborg,sweden,27/08/18,allsvenskan,1.0,2.0,2018-08-27 00:34:30.621545,norrkping,1.57,Win,2018-08-26 23:39:45,over 1.5 h,3.14,Over Team,2
coolcoconut123,varberg,sweden,27/08/18,superettan,2.0,4.0,2018-08-27 00:34:30.669967,jnkpings sdra,2.1,Lost,2018-08-26 23:39:45,x2,0.0,DC,1
coolcoconut123,ster,sweden,27/08/18,superettan,0.0,1.0,2018-08-27 00:34:30.699114,vrnamo,2.0,Lost,2018-08-26 23:39:45,over 1.5 a,0.0,Over Team,2
coolcoconut123,ster,sweden,27/08/18,superettan,0.0,1.0,2018-08-27 00:34:30.731658,vrnamo,2.15,Lost,2018-08-26 23:39:45,2,0.0,1X2,1
mart9441,arminia bielefeld,germany,27/08/18,bundesliga 2,0.0,3.0,2018-08-27 08:34:23.318324,hamburger sv,1.8,Win,2018-08-27 08:00:31,over 2.5,1.8,Over,1
ExperientialAra,atalanta,italy,27/08/18,serie a,3.0,3.0,2018-08-27 12:34:27.239156,as roma,1.66,Lost,2018-08-27 12:09:19,1,0.0,1X2,5
ExperientialAra,nec,the netherlands,27/08/18,kitchen champion division,,,2018-08-27 12:34:27.248950,jong utrecht,1.37,Push,2018-08-27 12:09:19,2,5,,5
ExperientialAra,bielefield,germany,27/08/18,competition,0.0,3.0,2018-08-27 12:34:27.256525,hamburger sv,1.76,Win,2018-08-27 12:09:19,1,3.52,1X2,2
ExperientialAra,askhisar belediye,turkey,27/08/18,super lig,,,2018-08-27 12:34:27.264140,basaksehir,1.41,Push,2018-08-27 12:09:19,1,5,,5
ExperientialAra,altinordu,turkey,27/08/18,tff,,,2018-08-27 12:34:27.276139,karabukspor,1.32,Push,2018-08-27 12:09:19,2,5,,5
ExperientialAra,luch minsk,belarus,27/08/18,vysshaya liga,0.0,1.0,2018-08-27 12:34:27.283757,slutsk,1.41,Win,2018-08-27 12:09:19,1,2.82,1X2,2
ExperientialAra,hammarby,sweden,27/08/18,allsvenskan,3.0,2.0,2018-08-27 12:34:27.291299,dalkurd,1.56,Win,2018-08-27 12:09:19,2,7.800000000000001,1X2,5
