Author,AwayTeam,Country,Date,Division,FTAG,FTHG,Fetched at,HomeTeam,Odds,Outcome,Post Time,Prediction,Return,Type of Bet,Wager
neiiilm,nott'ham forest,uk,28/11/18,england championship,,,2018-11-28 00:34:12.550359,aston villa,1.73,Push,2018-11-27 23:39:17.000000,btts yes,1.0,,1.0
poisonfoot,javor,serbia,28/11/18,prva liga,1.0,3.0,2018-11-28 09:34:18.787592,backa topola,1.83,Win,2018-11-28 09:10:06,btts yes,0.18300000000000002,BTTS,0.1
poisonfoot,nottingham,england,28/11/18,championship,5.0,5.0,2018-11-28 09:34:18.803295,aston villa,1.98,Win,2018-11-28 09:10:06,ah 2 0.5,0.396,AH,0.2
salim047,monaco,uefa,28/11/18,champions league,,,2018-11-28 16:34:17.989395,atletico madrid,1.83,Push,2018-11-28 12:07:07,corner over 9,2.0,,2.0
