Author,AwayTeam,Country,Date,Division,FTAG,FTHG,Fetched at,HomeTeam,Odds,Outcome,Post Time,Prediction,Return,Type of Bet,Wager
HJGP,beroe,bulgaria,28/11/17,parva liga,1,1,2017-11-27 18:00:08.935956,botev plovdiv,3.1,Win,2017-11-27 17:59:45.000000,d,3.1,1X2,1.0
HJGP,brechin,scotland,28/11/17,championship,0,4,2017-11-27 18:00:08.957512,inverness,5.22,Lost,2017-11-27 17:59:45.000000,d,0.0,1X2,1.0
HJGP,livingston,scotland,28/11/17,championship,1,3,2017-11-27 18:00:08.974807,st. mirren,3.27,Lost,2017-11-27 17:59:45.000000,a,0.0,1X2,1.0
HJGP,orleans,france,28/11/17,ligue 2,0,4,2017-11-27 18:00:08.991551,bourg peronnas,3.22,Lost,2017-11-27 17:59:45.000000,d,0.0,1X2,1.0
johnnyc91,barnsley,england,28/11/17,championship,0,3,2017-11-27 20:00:08.492072,reading,1.73,Lost,2017-11-27 19:55:52,btts yes,0.0,BTTS,3.0
johnnyc91,ipswich,england,28/11/17,championship,1,0,2017-11-27 20:00:08.512560,derby,1.65,Lost,2017-11-27 19:55:52,h,0.0,1X2,3.0
coolcoconut123,tottenham hotspur,england,28/11/17,premier league,1,2,2017-11-27 22:00:09.339339,leicester city,1.72,Lost,2017-11-27 21:53:01,2,0.0,1X2,2.0
coolcoconut123,manchester united,england,28/11/17,premier league,4,2,2017-11-27 22:00:09.360965,watford,1.66,Win,2017-11-27 21:53:01,2,3.32,1X2,2.0
HJGP,paris fc,france,28/11/17,ligue 2,0,0,2017-11-27 23:00:09.653902,chateauroux,2.69,Lost,2017-11-27 17:59:45,2,0.0,1X2,1.0
HJGP,newcastle utd,england,28/11/17,premier league,2,2,2017-11-27 23:00:09.675491,west brom,3.1,Win,2017-11-27 17:59:45,x,3.1,1X2,1.0
HJGP,ac ajaccio,france,28/11/17,ligue 2,0,2,2017-11-27 23:00:09.692201,lens,3.93,Lost,2017-11-27 17:59:45,2,0.0,1X2,1.0
coolcoconut123,cittadella,italy,28/11/17,coppa italia,2,0,2017-11-27 23:30:09.421379,spal 2013,1.16,Lost,2017-11-27 23:08:43,over 0.5 h,0.0,Over Team,2.0
coolcoconut123,dijons,france,28/11/17,ligue 1,1,2,2017-11-27 23:30:09.442933,amiens,1.33,Win,2017-11-27 23:08:43,over 0.5 h,2.66,Over Team,2.0
coolcoconut123,caen,france,28/11/17,ligue 1,0,0,2017-11-27 23:30:09.459638,strasbourg,1.85,Lost,2017-11-27 23:08:43,btts yes,0.0,BTTS,2.0
coolcoconut123,numancia,spain,28/11/17,copa del rey,1,1,2017-11-27 23:30:09.476288,malaga,1.66,Win,2017-11-27 23:08:43,over 0.5 a,3.32,Over Team,2.0
coolcoconut123,ipswich town,england,28/11/17,chmpionship,1,0,2017-11-27 23:30:09.492986,derby county,1.86,Lost,2017-11-27 23:08:43,btts yes,0.0,BTTS,2.0
therealpyro,arab contractors,egypt,28/11/17,premier league,1,0,2017-11-28 01:30:06.432971,tanta,2.7,Lost,2017-11-28 01:25:05,over 2.5,0.0,Over,1.0
therealpyro,brechin,scotland,28/11/17,championship,0,4,2017-11-28 01:30:06.455189,inverness,4.0,Lost,2017-11-28 01:25:05,dc x2,0.0,DC,1.0
therealpyro,brechin,scotland,28/11/17,championship,0,4,2017-11-28 01:30:06.472540,inverness,9.0,Lost,2017-11-28 01:25:05,dnb 2,0.0,DNB,1.0
therealpyro,livingston,scotland,28/11/17,championship,1,3,2017-11-28 01:30:06.489903,st. mirren,3.0,Win,2017-11-28 01:25:05,over 3.5,3.0,Over,1.0
therealpyro,valenciennes,france,28/11/17,ligue 2,1,3,2017-11-28 01:30:06.507201,sochaux,3.4,Win,2017-11-28 01:25:05,over 3.5,3.4,Over,1.0
therealpyro,kings lynn,england,28/11/17,southern premier league,2,2,2017-11-28 01:30:06.524502,biggleswade town,3.78,Win,2017-11-28 01:25:05,x,3.78,1X2,1.0
mart9441,crystal palace,england,28/11/17,premier league,0,0,2017-11-28 13:30:06.665803,brighton & hove albion,1.87,Push,2017-11-28 13:29:20,ah 1 +0,1.0,AH,1.0
mart9441,manchester united,england,28/11/17,premier league,4,2,2017-11-28 13:30:06.686084,watford,4.2,Lost,2017-11-28 13:29:20,ah 1 +0,0.0,AH,0.5
mart9441,manchester united,england,28/11/17,premier league,4,2,2017-11-28 15:00:07.948969,watford,2.0,Push,2017-11-28 13:29:20,ah 1 +0.75,1.0,AH,1.0
js904,crystal palace,england,29/11/17,premier league,0,0,2017-11-28 16:30:06.915399,brighton,2.12,Push,2017-11-28 16:11:00,ah a +0,1.0,AH,1.0
js904,tottenham,england,29/11/17,premier league,1,2,2017-11-28 16:30:06.937214,leicester,1.7,Win,2017-11-28 16:11:00,ah h +1,0.85,AH,0.5
js904,man utd,england,29/11/17,premier league,4,2,2017-11-28 16:30:06.954007,watford,1.68,Lost,2017-11-28 16:11:00,ah h +1,0.0,AH,0.5
coolcoconut123,ipswich town,england,28/11/17,championship,1,0,2017-11-28 22:00:07.982968,derby county,1.86,Lost,2017-11-27 23:08:43,btts yes,0.0,BTTS,2.0
