Author,AwayTeam,Country,Date,Division,FTAG,FTHG,Fetched at,HomeTeam,Odds,Outcome,Post Time,Prediction,Return,Type of Bet,Wager
coolcoconut123,ilves,finland,30/07/18,veikkausliiga,3.0,1.0,2018-07-29 20:34:26.317680,tps,2.0,Win,2018-07-29 20:24:48.000000,btts yes,4.0,BTTS,2
coolcoconut123,hammarby,sweden,30/07/18,allsvenskan,3.0,1.0,2018-07-29 20:34:26.341216,trelleborg,1.6,Win,2018-07-29 20:24:48.000000,2,3.2,1X2,2
coolcoconut123,hammarby,sweden,30/07/18,allsvenskan,3.0,1.0,2018-07-29 20:34:26.351692,trelleborg,1.61,Win,2018-07-29 20:24:48.000000,over 1.5 a,3.22,Over Team,2
coolcoconut123,valur,iceland,30/07/18,urvalsdeild,0.0,0.0,2018-07-29 20:34:26.379447,fylkir,1.61,Lost,2018-07-29 20:24:48.000000,over 1.5 a,0.0,Over Team,2
coolcoconut123,fjlnir,iceland,30/07/18,urvalsdeild,,,2018-07-29 20:34:26.402356,fh,1.57,Push,2018-07-29 20:24:48.000000,over 1.5 h,2,,2
coolcoconut123,fjlnir,iceland,30/07/18,urvalsdeild,,,2018-07-29 20:34:26.415757,fh,1.72,Push,2018-07-29 20:24:48.000000,btts yes,2,,2
coolcoconut123,breidablik,iceland,30/07/18,urvalsdeild,3.0,1.0,2018-07-29 20:34:26.437633,keflavk,2.05,Win,2018-07-29 20:24:48.000000,ah 2 -1.50,4.1,AH,2
WaRAmBusHeR,rfs,latvia,30/07/18,synottip virslga,0.0,1.0,2018-07-30 11:34:23.308859,riga fc,1.76,Lost,2018-07-30 11:16:19,dnb 2,0.0,DNB,1
ExperientialAra,cherno more,bulgaria,30/07/18,parva liga,2.0,2.0,2018-07-30 13:34:27.627139,levski,1.36,Lost,2018-07-30 13:15:10,1,0.0,1X2,5
ExperientialAra,breidablik,iceland,30/07/18,competition,3.0,1.0,2018-07-30 13:34:27.634106,kefvlavik,1.37,Win,2018-07-30 13:15:10,2,6.8500000000000005,1X2,5
ExperientialAra,fc viitorul,romania,30/07/18,liga 1,1.0,1.0,2018-07-30 13:34:27.639669,concordia,2.12,Lost,2018-07-30 13:15:10,2,0.0,1X2,2
ExperientialAra,liberec,czech republic,30/07/18,1. liga,0.0,1.0,2018-07-30 13:34:27.645288,plzen,1.33,Win,2018-07-30 13:15:10,1,6.65,1X2,5
ExperientialAra,metz,france,30/07/18,ligue 2,1.0,0.0,2018-07-30 13:34:27.650638,brest,1.67,Win,2018-07-30 13:15:10,2x,3.34,DC,2
