Author,AwayTeam,Country,Date,Division,FTAG,FTHG,Fetched at,HomeTeam,Odds,Outcome,Post Time,Prediction,Return,Type of Bet,Wager
coolcoconut123,ankaragucu,turkey,30/11/18,sper lig,1,1,2018-11-30 08:34:18.778058,rizespor,1.75,Win,2018-11-30 08:02:43.000000,x2,1.75,DC,1
coolcoconut123,kaiserslautern,germany,30/11/18,3. liga,0,5,2018-11-30 08:34:18.792090,unterhaching,2.0,Win,2018-11-30 08:02:43.000000,over 1.5 h,2.0,Over Team,1
coolcoconut123,beziers,france,30/11/18,ligue 2,0,2,2018-11-30 08:34:18.798870,clermont foot,3.5,Lost,2018-11-30 08:02:43.000000,dnb 2,0.0,DNB,1
coolcoconut123,cadiz,spain,30/11/18,segunda division,1,0,2018-11-30 08:34:18.805793,real zaragoza,2.0,Win,2018-11-30 08:02:43.000000,dnb 2,2.0,DNB,1
coolcoconut123,cadiz,spain,30/11/18,segunda division,1,0,2018-11-30 08:34:18.812673,real zaragoza,3.25,Lost,2018-11-30 08:02:43.000000,over 1.5 a,0.0,Over Team,1
jack_kibbz,as beziers,france,30/11/18,ligue 2,0,2,2018-11-30 16:34:16.056850,clermont foot 63,2.3,Lost,2018-11-30 15:50:29,o 2.5,0.0,Over,50
jack_kibbz,nancy,france,30/11/18,ligue 2,2,1,2018-11-30 16:34:16.062928,us orleans,2.25,Win,2018-11-30 15:50:29,o 2.5,112.5,Over,50
