Author,AwayTeam,Country,Date,Division,FTAG,FTHG,Fetched at,HomeTeam,Odds,Outcome,Post Time,Prediction,Return,Type of Bet,Wager
tropianhs,levante,spain,31/03/18,la liga,1.0,1.0,2018-03-30 18:34:15.163911,girona,3.96,Win,2018-03-30 18:32:23.000000,x,31.68,1X2,8
tropianhs,real sociedad,spain,31/03/18,la liga,,,2018-03-30 18:34:15.169648,eibar,3.16,Push,2018-03-30 18:32:23.000000,2,8,,8
tropianhs,alaves,spain,31/03/18,la liga,,,2018-03-30 18:34:15.173958,espanyol,3.25,Push,2018-03-30 18:32:23.000000,x,8,,8
tropianhs,tottenham,england,31/03/18,premier league,,,2018-03-30 18:34:15.178965,chelsea,3.47,Push,2018-03-30 18:32:23.000000,x,8,,8
tropianhs,burnley,england,31/03/18,premier league,2.0,1.0,2018-03-30 18:34:15.183227,west brom,3.12,Lost,2018-03-30 18:32:23.000000,x,0.0,1X2,8
tropianhs,southampton,england,31/03/18,premier league,0.0,3.0,2018-03-30 18:34:15.187458,west ham,2.73,Lost,2018-03-30 18:32:23.000000,2,0.0,1X2,8
tropianhs,borussia monchengladbach,germany,31/03/18,bundesliga,,,2018-03-30 18:34:15.191777,mainz,3.39,Push,2018-03-30 18:32:23.000000,x,8,,8
tropianhs,hamburg,germany,31/03/18,bundesliga,1.0,1.0,2018-03-30 18:34:15.196084,stuttgart,5.3,Lost,2018-03-30 18:32:23.000000,2,0.0,1X2,8
tropianhs,nice,france,31/03/18,ligue 1,,,2018-03-30 18:34:15.200378,troyes,2.39,Push,2018-03-30 18:32:23.000000,2,8,,8
Yid,burnley,england,31/03/18,premier league,2.0,1.0,2018-03-31 08:34:13.403511,west brom,2.1,Lost,2018-03-31 07:54:06,2 ah 0.0,0.0,AH,5
Yid,aston villa,england,31/03/18,championship,0.0,0.0,2018-03-31 08:34:13.409248,hull,2.0,Push,2018-03-31 07:54:06,2 ah 0.0,5.0,AH,5
Yid,portsmouth,england,31/03/18,league one,1.0,0.0,2018-03-31 08:34:13.413695,walsall,2.3,Win,2018-03-31 07:54:06,2,11.5,1X2,5
