Author,AwayTeam,Country,Date,Division,FTAG,FTHG,Fetched at,HomeTeam,Odds,Outcome,Post Time,Prediction,Return,Type of Bet,Wager
coolcoconut123,amrica mineiro,brazil,31/05/18,serie a,0,1,2018-05-31 09:34:22.284558,corinthians,1.8,Lost,2018-05-31 08:57:01.000000,over 1.5 h,0.0,Over Team,2
coolcoconut123,santos,brazil,31/05/18,serie a,0,2,2018-05-31 09:34:22.319434,atltico pr,2.37,Lost,2018-05-31 08:57:01.000000,dnb 2,0.0,DNB,2
coolcoconut123,santos,brazil,31/05/18,serie a,0,2,2018-05-31 09:34:22.334723,atltico pr,2.6,Lost,2018-05-31 08:57:01.000000,btts & over 2.5,0.0,Over,2
